//Maya ASCII 2011 scene
//Name: attributeTransfer_particles_1.ma
//Last modified: Tue, Apr 20, 2010 03:26:55 PM
//Codeset: UTF-8
requires maya "2011";
requires "Mayatomr" "2011.0m - 3.8.1.25 ";
requires "stereoCamera" "10.0";
requires "SOuP" "1.01";
currentUnit -l centimeter -a degree -t film;
fileInfo "application" "maya";
fileInfo "product" "Maya Unlimited 2011 Pre-Release";
fileInfo "version" "2011 Release Candidate 2 x64";
fileInfo "cutIdentifier" "201002050208-768360";
fileInfo "osv" "Linux 2.6.30.5-43.fc11.x86_64 #1 SMP Thu Aug 27 21:39:52 EDT 2009 x86_64";
createNode transform -s -n "persp";
	setAttr ".v" no;
	setAttr ".t" -type "double3" 5.7685902895792154 4.4910680900345046 7.7685533962557622 ;
	setAttr ".r" -type "double3" -20 40 0 ;
createNode camera -s -n "perspShape" -p "persp";
	setAttr -k off ".v" no;
	setAttr ".fl" 34.999999999999993;
	setAttr ".coi" 10.791961122944446;
	setAttr ".imn" -type "string" "persp";
	setAttr ".den" -type "string" "persp_depth";
	setAttr ".man" -type "string" "persp_mask";
	setAttr ".tp" -type "double3" -0.75 0.8 0 ;
	setAttr ".hc" -type "string" "viewSet -p %camera";
createNode transform -s -n "top";
	setAttr ".v" no;
	setAttr ".t" -type "double3" 0.18772220811434293 100.1 0.28815420589545615 ;
	setAttr ".r" -type "double3" -89.999999999999986 0 0 ;
createNode camera -s -n "topShape" -p "top";
	setAttr -k off ".v" no;
	setAttr ".rnd" no;
	setAttr ".coi" 100.1;
	setAttr ".ow" 8.7395768950390327;
	setAttr ".imn" -type "string" "top";
	setAttr ".den" -type "string" "top_depth";
	setAttr ".man" -type "string" "top_mask";
	setAttr ".hc" -type "string" "viewSet -t %camera";
	setAttr ".o" yes;
createNode transform -s -n "front";
	setAttr ".v" no;
	setAttr ".t" -type "double3" 0 0 100.1 ;
createNode camera -s -n "frontShape" -p "front";
	setAttr -k off ".v" no;
	setAttr ".rnd" no;
	setAttr ".coi" 100.1;
	setAttr ".ow" 30;
	setAttr ".imn" -type "string" "front";
	setAttr ".den" -type "string" "front_depth";
	setAttr ".man" -type "string" "front_mask";
	setAttr ".hc" -type "string" "viewSet -f %camera";
	setAttr ".o" yes;
createNode transform -s -n "side";
	setAttr ".v" no;
	setAttr ".t" -type "double3" 100.1 0 0 ;
	setAttr ".r" -type "double3" 0 89.999999999999986 0 ;
createNode camera -s -n "sideShape" -p "side";
	setAttr -k off ".v" no;
	setAttr ".rnd" no;
	setAttr ".coi" 100.1;
	setAttr ".ow" 30;
	setAttr ".imn" -type "string" "side";
	setAttr ".den" -type "string" "side_depth";
	setAttr ".man" -type "string" "side_mask";
	setAttr ".hc" -type "string" "viewSet -s %camera";
	setAttr ".o" yes;
createNode pointEmitter -n "emitter1";
	setAttr ".t" -type "double3" 0 2.5 0 ;
	setAttr ".rat" 110;
	setAttr ".sro" no;
	setAttr -l on ".urpp";
	setAttr ".spd" 2;
createNode transform -n "particle1";
createNode particle -n "particleShape1" -p "particle1";
	addAttr -ci true -sn "lifespanPP" -ln "lifespanPP" -dt "doubleArray";
	addAttr -ci true -h true -sn "lifespanPP0" -ln "lifespanPP0" -dt "doubleArray";
	addAttr -ci true -sn "lifespan" -ln "lifespan" -at "double";
	addAttr -ci true -sn "rgbPP" -ln "rgbPP" -dt "vectorArray";
	addAttr -ci true -h true -sn "rgbPP0" -ln "rgbPP0" -dt "vectorArray";
	addAttr -ci true -sn "ageNormalized" -ln "ageNormalized" -dt "doubleArray";
	addAttr -ci true -h true -sn "ageNormalized0" -ln "ageNormalized0" -dt "doubleArray";
	addAttr -is true -ci true -sn "colorAccum" -ln "colorAccum" -min 0 -max 1 -at "bool";
	addAttr -is true -ci true -sn "useLighting" -ln "useLighting" -min 0 -max 1 -at "bool";
	addAttr -is true -ci true -sn "pointSize" -ln "pointSize" -dv 2 -min 1 -max 60 -at "long";
	addAttr -is true -ci true -sn "normalDir" -ln "normalDir" -dv 2 -min 1 -max 3 -at "long";
	addAttr -ci true -sn "radiusPP" -ln "radiusPP" -dt "doubleArray";
	addAttr -ci true -h true -sn "radiusPP0" -ln "radiusPP0" -dt "doubleArray";
	addAttr -is true -ci true -sn "selectedOnly" -ln "selectedOnly" -min 0 -max 1 -at "bool";
	addAttr -is true -ci true -sn "attributeName" -ln "attributeName" -dt "string";
	setAttr -k off ".v";
	setAttr ".gf" -type "Int32Array" 0 ;
	setAttr ".pos0" -type "vectorArray" 0 ;
	setAttr ".vel0" -type "vectorArray" 0 ;
	setAttr ".acc0" -type "vectorArray" 0 ;
	setAttr ".usc" yes;
	setAttr ".scp" -type "string" "attributeTransfer_particles_1_startup";
	setAttr ".mas0" -type "doubleArray" 0 ;
	setAttr ".id0" -type "doubleArray" 0 ;
	setAttr ".bt0" -type "doubleArray" 0 ;
	setAttr ".ag0" -type "doubleArray" 0 ;
	setAttr -s 3 ".xo";
	setAttr ".irbx" -type "string" "";
	setAttr ".irax" -type "string" ".O[0] = noise(frame*0.005*.I[0])+0.35;\n\nif(frame > 30)\n\t.O[1] = <<noise(-.I[0]*.5,.I[0]*.5),0,noise(-.I[0]*.5,.I[0]*.5)>>;";
	setAttr ".icx" -type "string" ".O[0] = rand( .1,1);\n.O[2] = <<rand(0,1),rand(0,1),rand(0,1)>>;";
	setAttr ".mxc" 25;
	setAttr ".cts" 1;
	setAttr ".chw" 100;
	setAttr ".lifespanPP0" -type "doubleArray" 0 ;
	setAttr -k on ".lifespan" 1;
	setAttr ".rgbPP0" -type "vectorArray" 0 ;
	setAttr ".ageNormalized0" -type "doubleArray" 0 ;
	setAttr -k on ".colorAccum";
	setAttr -k on ".useLighting";
	setAttr -k on ".pointSize" 4;
	setAttr -k on ".normalDir";
	setAttr ".radiusPP0" -type "doubleArray" 0 ;
	setAttr ".attributeName" -type "string" "radiusPP";
createNode gravityField -n "gravityField1";
	setAttr ".mag" 9.8;
	setAttr ".umd" no;
	setAttr ".fc[0]"  0 1 1;
	setAttr ".amag[0]"  0 1 1;
	setAttr ".crad[0]"  0 1 1;
	setAttr ".dy" -1;
createNode transform -n "pPlane1";
	setAttr -l on ".tx";
	setAttr -l on ".ty";
	setAttr -l on ".tz";
	setAttr -l on ".rx";
	setAttr -l on ".ry";
	setAttr -l on ".rz";
	setAttr -l on ".sx";
	setAttr -l on ".sy";
	setAttr -l on ".sz";
createNode mesh -n "pPlaneShape1" -p "pPlane1";
	addAttr -ci true -sn "mso" -ln "miShadingSamplesOverride" -min 0 -max 1 -at "bool";
	addAttr -ci true -sn "msh" -ln "miShadingSamples" -min 0 -max 12 -smx 8 -at "float";
	addAttr -ci true -sn "mdo" -ln "miMaxDisplaceOverride" -min 0 -max 1 -at "bool";
	addAttr -ci true -sn "mmd" -ln "miMaxDisplace" -min 0 -smx 1 -at "float";
	setAttr -k off ".v";
	setAttr ".vir" yes;
	setAttr ".vif" yes;
	setAttr ".uvst[0].uvsn" -type "string" "map1";
	setAttr ".cuvs" -type "string" "map1";
	setAttr ".dcol" yes;
	setAttr ".dcc" -type "string" "Ambient+Diffuse";
	setAttr ".ccls" -type "string" "colorSet1";
	setAttr ".clst[0].clsn" -type "string" "colorSet1";
	setAttr ".covm[0]"  0 1 1;
	setAttr ".cdvm[0]"  0 1 1;
	setAttr ".bnr" 0;
	setAttr ".ndt" 2;
createNode transform -n "pPlane2";
	setAttr ".v" no;
	setAttr ".s" -type "double3" 10 10 10 ;
createNode mesh -n "pPlaneShape2" -p "pPlane2";
	setAttr -k off ".v";
	setAttr ".vir" yes;
	setAttr ".vif" yes;
	setAttr ".uvst[0].uvsn" -type "string" "map1";
	setAttr ".cuvs" -type "string" "map1";
	setAttr ".dcc" -type "string" "Ambient+Diffuse";
	setAttr ".covm[0]"  0 1 1;
	setAttr ".cdvm[0]"  0 1 1;
createNode transform -n "boundingObject1";
createNode boundingObject -n "boundingObjectShape1" -p "boundingObject1";
	setAttr -k off ".v";
	setAttr ".tp" 3;
	setAttr ".dpcbv" no;
	setAttr ".cpcbv" no;
	setAttr -s 2 ".pgtf[0:1]"  0 1 1 1 0 1;
	setAttr -s 2 ".wgtf[0:1]"  0 1 1 1 0 1;
	setAttr ".clrf[0].clrfcv" -type "float3" 1 1 1 ;
	setAttr -s 8 ".af[0:7]"  0 1 1 1 0 1 0.16521738 0.14 1 0.28346458 0.83999997 1 0.41732284 
		0.079999998 1 0.56692916 0.88 1 0.66929132 0.18000001 1 0.79527557 0.74000001 1;
	setAttr -s 2 ".rf[0:1]"  0 1 1 1 0 1;
	setAttr -s 6 ".nf[0:5]"  0 1 1 1 0 1 0.16535433 0.12 1 0.34645671 0.92000002 1 0.57480317 
		0.22 1 0.73228347 0.69999999 1;
createNode transform -n "boundingObject2";
	setAttr ".t" -type "double3" -3 0 0 ;
createNode boundingObject -n "boundingObjectShape2" -p "boundingObject2";
	setAttr -k off ".v";
	setAttr -s 2 ".pgtf[0:1]"  0 1 1 1 0 1;
	setAttr -s 2 ".wgtf[0:1]"  0 1 1 1 0 1;
	setAttr ".clrf[0].clrfcv" -type "float3" 1 1 1 ;
	setAttr ".af[0]"  0 1 1;
	setAttr -s 2 ".rf[0:1]"  0 1 1 1 0 1;
	setAttr -s 2 ".nf[0:1]"  0 1 1 1 0 1;
createNode lightLinker -s -n "lightLinker1";
	setAttr -s 3 ".lnk";
	setAttr -s 3 ".slnk";
createNode displayLayerManager -n "layerManager";
createNode displayLayer -n "defaultLayer";
createNode renderLayerManager -n "renderLayerManager";
createNode renderLayer -n "defaultRenderLayer";
	setAttr ".g" yes;
createNode attributeTransfer -n "attributeTransfer1";
	setAttr ".mi" 25;
	setAttr ".pos" yes;
	setAttr ".clr" yes;
	setAttr ".m" no;
	setAttr ".b" no;
	setAttr -s 2 ".k[0:1]"  0 1 2 1 0 1;
	setAttr -l on ".k[1].kp";
	setAttr -l on ".k[1].kfv";
	setAttr -s 4 ".bos";
	setAttr ".bos[0].be" 1;
	setAttr ".bos[0].bt" 3;
	setAttr ".bos[0].bc" yes;
	setAttr ".bos[0].btso" 1;
	setAttr ".bos[0].btcs" -type "double3" 1 1 1 ;
	setAttr ".bos[0].bso" 1;
	setAttr ".bos[0].bbcs" -type "double3" 1 1 1 ;
	setAttr ".bos[3].bpm" -type "matrix" 1 0 0 0 0 1 0 0 0 0 1 0 2.720713332476719 0.60423116817942168 -0.21427551877279716 1
		;
	setAttr ".bos[3].be" 1;
	setAttr ".bos[3].bc" yes;
	setAttr ".bos[3].btso" 1;
	setAttr ".bos[3].btcs" -type "double3" 1 1 1 ;
	setAttr ".bos[3].bso" 1;
	setAttr ".bos[3].bbcs" -type "double3" 1 1 1 ;
	setAttr ".bos[3].bppp" -type "pointArray" 0 ;
	setAttr ".bos[3].bnpp" -type "vectorArray" 0 ;
	setAttr ".bos[3].brpp" -type "doubleArray" 0 ;
	setAttr ".bos[3].bwpp" -type "doubleArray" 0 ;
	setAttr ".bos[3].brgbapp" -type "doubleArray" 0 ;
	setAttr ".bos[6].bpm" -type "matrix" 1.5 0 0 0 0 1.5 0 0 0 0 1.5 0 3.3109525002014699 -0.4502086399068812 -0.0078753619816680498 1
		;
	setAttr ".bos[6].be" 1;
	setAttr ".bos[6].bt" 3;
	setAttr ".bos[6].bc" yes;
	setAttr ".bos[6].btso" 1;
	setAttr ".bos[6].btcs" -type "double3" 1 1 1 ;
	setAttr ".bos[6].bso" 1;
	setAttr ".bos[6].bbcs" -type "double3" 1 1 1 ;
createNode polyPlane -n "polyPlane1";
	setAttr ".w" 5;
	setAttr ".h" 5;
	setAttr ".sw" 100;
	setAttr ".sh" 100;
	setAttr ".cuv" 2;
createNode script -n "uiConfigurationScriptNode";
	setAttr ".b" -type "string" (
		"// Maya Mel UI Configuration File.\n//\n//  This script is machine generated.  Edit at your own risk.\n//\n//\n\nglobal string $gMainPane;\nif (`paneLayout -exists $gMainPane`) {\n\n\tglobal int $gUseScenePanelConfig;\n\tint    $useSceneConfig = $gUseScenePanelConfig;\n\tint    $menusOkayInPanels = `optionVar -q allowMenusInPanels`;\tint    $nVisPanes = `paneLayout -q -nvp $gMainPane`;\n\tint    $nPanes = 0;\n\tstring $editorName;\n\tstring $panelName;\n\tstring $itemFilterName;\n\tstring $panelConfig;\n\n\t//\n\t//  get current state of the UI\n\t//\n\tsceneUIReplacement -update $gMainPane;\n\n\t$panelName = `sceneUIReplacement -getNextPanel \"modelPanel\" (localizedPanelLabel(\"Top View\")) `;\n\tif (\"\" == $panelName) {\n\t\tif ($useSceneConfig) {\n\t\t\t$panelName = `modelPanel -unParent -l (localizedPanelLabel(\"Top View\")) -mbv $menusOkayInPanels `;\n\t\t\t$editorName = $panelName;\n            modelEditor -e \n                -camera \"persp\" \n                -useInteractiveMode 0\n                -displayLights \"default\" \n                -displayAppearance \"smoothShaded\" \n"
		+ "                -activeOnly 0\n                -ignorePanZoom 0\n                -wireframeOnShaded 0\n                -headsUpDisplay 1\n                -selectionHiliteDisplay 1\n                -useDefaultMaterial 0\n                -bufferMode \"double\" \n                -twoSidedLighting 1\n                -backfaceCulling 0\n                -xray 0\n                -jointXray 0\n                -activeComponentsXray 0\n                -displayTextures 0\n                -smoothWireframe 0\n                -lineWidth 1\n                -textureAnisotropic 0\n                -textureHilight 1\n                -textureSampling 2\n                -textureDisplay \"modulate\" \n                -textureMaxSize 8192\n                -fogging 0\n                -fogSource \"fragment\" \n                -fogMode \"linear\" \n                -fogStart 0\n                -fogEnd 100\n                -fogDensity 0.1\n                -fogColor 0.5 0.5 0.5 1 \n                -maxConstantTransparency 1\n                -rendererName \"base_OpenGL_Renderer\" \n"
		+ "                -colorResolution 256 256 \n                -bumpResolution 512 512 \n                -textureCompression 0\n                -transparencyAlgorithm \"frontAndBackCull\" \n                -transpInShadows 0\n                -cullingOverride \"none\" \n                -lowQualityLighting 0\n                -maximumNumHardwareLights 1\n                -occlusionCulling 0\n                -shadingModel 0\n                -useBaseRenderer 0\n                -useReducedRenderer 0\n                -smallObjectCulling 0\n                -smallObjectThreshold -1 \n                -interactiveDisableShadows 0\n                -interactiveBackFaceCull 0\n                -sortTransparent 1\n                -nurbsCurves 1\n                -nurbsSurfaces 1\n                -polymeshes 1\n                -subdivSurfaces 1\n                -planes 1\n                -lights 1\n                -cameras 1\n                -controlVertices 1\n                -hulls 1\n                -grid 1\n                -joints 1\n                -ikHandles 1\n"
		+ "                -deformers 1\n                -dynamics 1\n                -fluids 1\n                -hairSystems 1\n                -follicles 1\n                -nCloths 1\n                -nParticles 1\n                -nRigids 1\n                -dynamicConstraints 1\n                -locators 1\n                -manipulators 1\n                -dimensions 1\n                -handles 1\n                -pivots 1\n                -textures 1\n                -strokes 1\n                -shadows 0\n                $editorName;\nmodelEditor -e -viewSelected 0 $editorName;\n\t\t}\n\t} else {\n\t\t$label = `panel -q -label $panelName`;\n\t\tmodelPanel -edit -l (localizedPanelLabel(\"Top View\")) -mbv $menusOkayInPanels  $panelName;\n\t\t$editorName = $panelName;\n        modelEditor -e \n            -camera \"persp\" \n            -useInteractiveMode 0\n            -displayLights \"default\" \n            -displayAppearance \"smoothShaded\" \n            -activeOnly 0\n            -ignorePanZoom 0\n            -wireframeOnShaded 0\n            -headsUpDisplay 1\n"
		+ "            -selectionHiliteDisplay 1\n            -useDefaultMaterial 0\n            -bufferMode \"double\" \n            -twoSidedLighting 1\n            -backfaceCulling 0\n            -xray 0\n            -jointXray 0\n            -activeComponentsXray 0\n            -displayTextures 0\n            -smoothWireframe 0\n            -lineWidth 1\n            -textureAnisotropic 0\n            -textureHilight 1\n            -textureSampling 2\n            -textureDisplay \"modulate\" \n            -textureMaxSize 8192\n            -fogging 0\n            -fogSource \"fragment\" \n            -fogMode \"linear\" \n            -fogStart 0\n            -fogEnd 100\n            -fogDensity 0.1\n            -fogColor 0.5 0.5 0.5 1 \n            -maxConstantTransparency 1\n            -rendererName \"base_OpenGL_Renderer\" \n            -colorResolution 256 256 \n            -bumpResolution 512 512 \n            -textureCompression 0\n            -transparencyAlgorithm \"frontAndBackCull\" \n            -transpInShadows 0\n            -cullingOverride \"none\" \n"
		+ "            -lowQualityLighting 0\n            -maximumNumHardwareLights 1\n            -occlusionCulling 0\n            -shadingModel 0\n            -useBaseRenderer 0\n            -useReducedRenderer 0\n            -smallObjectCulling 0\n            -smallObjectThreshold -1 \n            -interactiveDisableShadows 0\n            -interactiveBackFaceCull 0\n            -sortTransparent 1\n            -nurbsCurves 1\n            -nurbsSurfaces 1\n            -polymeshes 1\n            -subdivSurfaces 1\n            -planes 1\n            -lights 1\n            -cameras 1\n            -controlVertices 1\n            -hulls 1\n            -grid 1\n            -joints 1\n            -ikHandles 1\n            -deformers 1\n            -dynamics 1\n            -fluids 1\n            -hairSystems 1\n            -follicles 1\n            -nCloths 1\n            -nParticles 1\n            -nRigids 1\n            -dynamicConstraints 1\n            -locators 1\n            -manipulators 1\n            -dimensions 1\n            -handles 1\n            -pivots 1\n"
		+ "            -textures 1\n            -strokes 1\n            -shadows 0\n            $editorName;\nmodelEditor -e -viewSelected 0 $editorName;\n\t\tif (!$useSceneConfig) {\n\t\t\tpanel -e -l $label $panelName;\n\t\t}\n\t}\n\n\n\t$panelName = `sceneUIReplacement -getNextPanel \"modelPanel\" (localizedPanelLabel(\"Side View\")) `;\n\tif (\"\" == $panelName) {\n\t\tif ($useSceneConfig) {\n\t\t\t$panelName = `modelPanel -unParent -l (localizedPanelLabel(\"Side View\")) -mbv $menusOkayInPanels `;\n\t\t\t$editorName = $panelName;\n            modelEditor -e \n                -camera \"side\" \n                -useInteractiveMode 0\n                -displayLights \"default\" \n                -displayAppearance \"wireframe\" \n                -activeOnly 0\n                -ignorePanZoom 0\n                -wireframeOnShaded 0\n                -headsUpDisplay 1\n                -selectionHiliteDisplay 1\n                -useDefaultMaterial 0\n                -bufferMode \"double\" \n                -twoSidedLighting 1\n                -backfaceCulling 0\n                -xray 0\n                -jointXray 0\n"
		+ "                -activeComponentsXray 0\n                -displayTextures 0\n                -smoothWireframe 0\n                -lineWidth 1\n                -textureAnisotropic 0\n                -textureHilight 1\n                -textureSampling 2\n                -textureDisplay \"modulate\" \n                -textureMaxSize 8192\n                -fogging 0\n                -fogSource \"fragment\" \n                -fogMode \"linear\" \n                -fogStart 0\n                -fogEnd 100\n                -fogDensity 0.1\n                -fogColor 0.5 0.5 0.5 1 \n                -maxConstantTransparency 1\n                -rendererName \"base_OpenGL_Renderer\" \n                -colorResolution 256 256 \n                -bumpResolution 512 512 \n                -textureCompression 0\n                -transparencyAlgorithm \"frontAndBackCull\" \n                -transpInShadows 0\n                -cullingOverride \"none\" \n                -lowQualityLighting 0\n                -maximumNumHardwareLights 1\n                -occlusionCulling 0\n"
		+ "                -shadingModel 0\n                -useBaseRenderer 0\n                -useReducedRenderer 0\n                -smallObjectCulling 0\n                -smallObjectThreshold -1 \n                -interactiveDisableShadows 0\n                -interactiveBackFaceCull 0\n                -sortTransparent 1\n                -nurbsCurves 1\n                -nurbsSurfaces 1\n                -polymeshes 1\n                -subdivSurfaces 1\n                -planes 1\n                -lights 1\n                -cameras 1\n                -controlVertices 1\n                -hulls 1\n                -grid 1\n                -joints 1\n                -ikHandles 1\n                -deformers 1\n                -dynamics 1\n                -fluids 1\n                -hairSystems 1\n                -follicles 1\n                -nCloths 1\n                -nParticles 1\n                -nRigids 1\n                -dynamicConstraints 1\n                -locators 1\n                -manipulators 1\n                -dimensions 1\n                -handles 1\n"
		+ "                -pivots 1\n                -textures 1\n                -strokes 1\n                -shadows 0\n                $editorName;\nmodelEditor -e -viewSelected 0 $editorName;\n\t\t}\n\t} else {\n\t\t$label = `panel -q -label $panelName`;\n\t\tmodelPanel -edit -l (localizedPanelLabel(\"Side View\")) -mbv $menusOkayInPanels  $panelName;\n\t\t$editorName = $panelName;\n        modelEditor -e \n            -camera \"side\" \n            -useInteractiveMode 0\n            -displayLights \"default\" \n            -displayAppearance \"wireframe\" \n            -activeOnly 0\n            -ignorePanZoom 0\n            -wireframeOnShaded 0\n            -headsUpDisplay 1\n            -selectionHiliteDisplay 1\n            -useDefaultMaterial 0\n            -bufferMode \"double\" \n            -twoSidedLighting 1\n            -backfaceCulling 0\n            -xray 0\n            -jointXray 0\n            -activeComponentsXray 0\n            -displayTextures 0\n            -smoothWireframe 0\n            -lineWidth 1\n            -textureAnisotropic 0\n            -textureHilight 1\n"
		+ "            -textureSampling 2\n            -textureDisplay \"modulate\" \n            -textureMaxSize 8192\n            -fogging 0\n            -fogSource \"fragment\" \n            -fogMode \"linear\" \n            -fogStart 0\n            -fogEnd 100\n            -fogDensity 0.1\n            -fogColor 0.5 0.5 0.5 1 \n            -maxConstantTransparency 1\n            -rendererName \"base_OpenGL_Renderer\" \n            -colorResolution 256 256 \n            -bumpResolution 512 512 \n            -textureCompression 0\n            -transparencyAlgorithm \"frontAndBackCull\" \n            -transpInShadows 0\n            -cullingOverride \"none\" \n            -lowQualityLighting 0\n            -maximumNumHardwareLights 1\n            -occlusionCulling 0\n            -shadingModel 0\n            -useBaseRenderer 0\n            -useReducedRenderer 0\n            -smallObjectCulling 0\n            -smallObjectThreshold -1 \n            -interactiveDisableShadows 0\n            -interactiveBackFaceCull 0\n            -sortTransparent 1\n            -nurbsCurves 1\n"
		+ "            -nurbsSurfaces 1\n            -polymeshes 1\n            -subdivSurfaces 1\n            -planes 1\n            -lights 1\n            -cameras 1\n            -controlVertices 1\n            -hulls 1\n            -grid 1\n            -joints 1\n            -ikHandles 1\n            -deformers 1\n            -dynamics 1\n            -fluids 1\n            -hairSystems 1\n            -follicles 1\n            -nCloths 1\n            -nParticles 1\n            -nRigids 1\n            -dynamicConstraints 1\n            -locators 1\n            -manipulators 1\n            -dimensions 1\n            -handles 1\n            -pivots 1\n            -textures 1\n            -strokes 1\n            -shadows 0\n            $editorName;\nmodelEditor -e -viewSelected 0 $editorName;\n\t\tif (!$useSceneConfig) {\n\t\t\tpanel -e -l $label $panelName;\n\t\t}\n\t}\n\n\n\t$panelName = `sceneUIReplacement -getNextPanel \"modelPanel\" (localizedPanelLabel(\"Front View\")) `;\n\tif (\"\" == $panelName) {\n\t\tif ($useSceneConfig) {\n\t\t\t$panelName = `modelPanel -unParent -l (localizedPanelLabel(\"Front View\")) -mbv $menusOkayInPanels `;\n"
		+ "\t\t\t$editorName = $panelName;\n            modelEditor -e \n                -camera \"front\" \n                -useInteractiveMode 0\n                -displayLights \"default\" \n                -displayAppearance \"wireframe\" \n                -activeOnly 0\n                -ignorePanZoom 0\n                -wireframeOnShaded 0\n                -headsUpDisplay 1\n                -selectionHiliteDisplay 1\n                -useDefaultMaterial 0\n                -bufferMode \"double\" \n                -twoSidedLighting 1\n                -backfaceCulling 0\n                -xray 0\n                -jointXray 0\n                -activeComponentsXray 0\n                -displayTextures 0\n                -smoothWireframe 0\n                -lineWidth 1\n                -textureAnisotropic 0\n                -textureHilight 1\n                -textureSampling 2\n                -textureDisplay \"modulate\" \n                -textureMaxSize 8192\n                -fogging 0\n                -fogSource \"fragment\" \n                -fogMode \"linear\" \n                -fogStart 0\n"
		+ "                -fogEnd 100\n                -fogDensity 0.1\n                -fogColor 0.5 0.5 0.5 1 \n                -maxConstantTransparency 1\n                -rendererName \"base_OpenGL_Renderer\" \n                -colorResolution 256 256 \n                -bumpResolution 512 512 \n                -textureCompression 0\n                -transparencyAlgorithm \"frontAndBackCull\" \n                -transpInShadows 0\n                -cullingOverride \"none\" \n                -lowQualityLighting 0\n                -maximumNumHardwareLights 1\n                -occlusionCulling 0\n                -shadingModel 0\n                -useBaseRenderer 0\n                -useReducedRenderer 0\n                -smallObjectCulling 0\n                -smallObjectThreshold -1 \n                -interactiveDisableShadows 0\n                -interactiveBackFaceCull 0\n                -sortTransparent 1\n                -nurbsCurves 1\n                -nurbsSurfaces 1\n                -polymeshes 1\n                -subdivSurfaces 1\n                -planes 1\n"
		+ "                -lights 1\n                -cameras 1\n                -controlVertices 1\n                -hulls 1\n                -grid 1\n                -joints 1\n                -ikHandles 1\n                -deformers 1\n                -dynamics 1\n                -fluids 1\n                -hairSystems 1\n                -follicles 1\n                -nCloths 1\n                -nParticles 1\n                -nRigids 1\n                -dynamicConstraints 1\n                -locators 1\n                -manipulators 1\n                -dimensions 1\n                -handles 1\n                -pivots 1\n                -textures 1\n                -strokes 1\n                -shadows 0\n                $editorName;\nmodelEditor -e -viewSelected 0 $editorName;\n\t\t}\n\t} else {\n\t\t$label = `panel -q -label $panelName`;\n\t\tmodelPanel -edit -l (localizedPanelLabel(\"Front View\")) -mbv $menusOkayInPanels  $panelName;\n\t\t$editorName = $panelName;\n        modelEditor -e \n            -camera \"front\" \n            -useInteractiveMode 0\n            -displayLights \"default\" \n"
		+ "            -displayAppearance \"wireframe\" \n            -activeOnly 0\n            -ignorePanZoom 0\n            -wireframeOnShaded 0\n            -headsUpDisplay 1\n            -selectionHiliteDisplay 1\n            -useDefaultMaterial 0\n            -bufferMode \"double\" \n            -twoSidedLighting 1\n            -backfaceCulling 0\n            -xray 0\n            -jointXray 0\n            -activeComponentsXray 0\n            -displayTextures 0\n            -smoothWireframe 0\n            -lineWidth 1\n            -textureAnisotropic 0\n            -textureHilight 1\n            -textureSampling 2\n            -textureDisplay \"modulate\" \n            -textureMaxSize 8192\n            -fogging 0\n            -fogSource \"fragment\" \n            -fogMode \"linear\" \n            -fogStart 0\n            -fogEnd 100\n            -fogDensity 0.1\n            -fogColor 0.5 0.5 0.5 1 \n            -maxConstantTransparency 1\n            -rendererName \"base_OpenGL_Renderer\" \n            -colorResolution 256 256 \n            -bumpResolution 512 512 \n"
		+ "            -textureCompression 0\n            -transparencyAlgorithm \"frontAndBackCull\" \n            -transpInShadows 0\n            -cullingOverride \"none\" \n            -lowQualityLighting 0\n            -maximumNumHardwareLights 1\n            -occlusionCulling 0\n            -shadingModel 0\n            -useBaseRenderer 0\n            -useReducedRenderer 0\n            -smallObjectCulling 0\n            -smallObjectThreshold -1 \n            -interactiveDisableShadows 0\n            -interactiveBackFaceCull 0\n            -sortTransparent 1\n            -nurbsCurves 1\n            -nurbsSurfaces 1\n            -polymeshes 1\n            -subdivSurfaces 1\n            -planes 1\n            -lights 1\n            -cameras 1\n            -controlVertices 1\n            -hulls 1\n            -grid 1\n            -joints 1\n            -ikHandles 1\n            -deformers 1\n            -dynamics 1\n            -fluids 1\n            -hairSystems 1\n            -follicles 1\n            -nCloths 1\n            -nParticles 1\n            -nRigids 1\n"
		+ "            -dynamicConstraints 1\n            -locators 1\n            -manipulators 1\n            -dimensions 1\n            -handles 1\n            -pivots 1\n            -textures 1\n            -strokes 1\n            -shadows 0\n            $editorName;\nmodelEditor -e -viewSelected 0 $editorName;\n\t\tif (!$useSceneConfig) {\n\t\t\tpanel -e -l $label $panelName;\n\t\t}\n\t}\n\n\n\t$panelName = `sceneUIReplacement -getNextPanel \"modelPanel\" (localizedPanelLabel(\"Persp View\")) `;\n\tif (\"\" == $panelName) {\n\t\tif ($useSceneConfig) {\n\t\t\t$panelName = `modelPanel -unParent -l (localizedPanelLabel(\"Persp View\")) -mbv $menusOkayInPanels `;\n\t\t\t$editorName = $panelName;\n            modelEditor -e \n                -camera \"persp\" \n                -useInteractiveMode 0\n                -displayLights \"default\" \n                -displayAppearance \"wireframe\" \n                -activeOnly 0\n                -ignorePanZoom 0\n                -wireframeOnShaded 0\n                -headsUpDisplay 1\n                -selectionHiliteDisplay 1\n                -useDefaultMaterial 0\n"
		+ "                -bufferMode \"double\" \n                -twoSidedLighting 1\n                -backfaceCulling 0\n                -xray 0\n                -jointXray 0\n                -activeComponentsXray 0\n                -displayTextures 0\n                -smoothWireframe 0\n                -lineWidth 1\n                -textureAnisotropic 0\n                -textureHilight 1\n                -textureSampling 2\n                -textureDisplay \"modulate\" \n                -textureMaxSize 8192\n                -fogging 0\n                -fogSource \"fragment\" \n                -fogMode \"linear\" \n                -fogStart 0\n                -fogEnd 100\n                -fogDensity 0.1\n                -fogColor 0.5 0.5 0.5 1 \n                -maxConstantTransparency 1\n                -rendererName \"base_OpenGL_Renderer\" \n                -colorResolution 256 256 \n                -bumpResolution 512 512 \n                -textureCompression 0\n                -transparencyAlgorithm \"frontAndBackCull\" \n                -transpInShadows 0\n"
		+ "                -cullingOverride \"none\" \n                -lowQualityLighting 0\n                -maximumNumHardwareLights 1\n                -occlusionCulling 0\n                -shadingModel 0\n                -useBaseRenderer 0\n                -useReducedRenderer 0\n                -smallObjectCulling 0\n                -smallObjectThreshold -1 \n                -interactiveDisableShadows 0\n                -interactiveBackFaceCull 0\n                -sortTransparent 1\n                -nurbsCurves 1\n                -nurbsSurfaces 1\n                -polymeshes 1\n                -subdivSurfaces 1\n                -planes 1\n                -lights 1\n                -cameras 1\n                -controlVertices 1\n                -hulls 1\n                -grid 1\n                -joints 1\n                -ikHandles 1\n                -deformers 1\n                -dynamics 1\n                -fluids 1\n                -hairSystems 1\n                -follicles 1\n                -nCloths 1\n                -nParticles 1\n                -nRigids 1\n"
		+ "                -dynamicConstraints 1\n                -locators 1\n                -manipulators 1\n                -dimensions 1\n                -handles 1\n                -pivots 1\n                -textures 1\n                -strokes 1\n                -shadows 0\n                $editorName;\nmodelEditor -e -viewSelected 0 $editorName;\n\t\t}\n\t} else {\n\t\t$label = `panel -q -label $panelName`;\n\t\tmodelPanel -edit -l (localizedPanelLabel(\"Persp View\")) -mbv $menusOkayInPanels  $panelName;\n\t\t$editorName = $panelName;\n        modelEditor -e \n            -camera \"persp\" \n            -useInteractiveMode 0\n            -displayLights \"default\" \n            -displayAppearance \"wireframe\" \n            -activeOnly 0\n            -ignorePanZoom 0\n            -wireframeOnShaded 0\n            -headsUpDisplay 1\n            -selectionHiliteDisplay 1\n            -useDefaultMaterial 0\n            -bufferMode \"double\" \n            -twoSidedLighting 1\n            -backfaceCulling 0\n            -xray 0\n            -jointXray 0\n            -activeComponentsXray 0\n"
		+ "            -displayTextures 0\n            -smoothWireframe 0\n            -lineWidth 1\n            -textureAnisotropic 0\n            -textureHilight 1\n            -textureSampling 2\n            -textureDisplay \"modulate\" \n            -textureMaxSize 8192\n            -fogging 0\n            -fogSource \"fragment\" \n            -fogMode \"linear\" \n            -fogStart 0\n            -fogEnd 100\n            -fogDensity 0.1\n            -fogColor 0.5 0.5 0.5 1 \n            -maxConstantTransparency 1\n            -rendererName \"base_OpenGL_Renderer\" \n            -colorResolution 256 256 \n            -bumpResolution 512 512 \n            -textureCompression 0\n            -transparencyAlgorithm \"frontAndBackCull\" \n            -transpInShadows 0\n            -cullingOverride \"none\" \n            -lowQualityLighting 0\n            -maximumNumHardwareLights 1\n            -occlusionCulling 0\n            -shadingModel 0\n            -useBaseRenderer 0\n            -useReducedRenderer 0\n            -smallObjectCulling 0\n            -smallObjectThreshold -1 \n"
		+ "            -interactiveDisableShadows 0\n            -interactiveBackFaceCull 0\n            -sortTransparent 1\n            -nurbsCurves 1\n            -nurbsSurfaces 1\n            -polymeshes 1\n            -subdivSurfaces 1\n            -planes 1\n            -lights 1\n            -cameras 1\n            -controlVertices 1\n            -hulls 1\n            -grid 1\n            -joints 1\n            -ikHandles 1\n            -deformers 1\n            -dynamics 1\n            -fluids 1\n            -hairSystems 1\n            -follicles 1\n            -nCloths 1\n            -nParticles 1\n            -nRigids 1\n            -dynamicConstraints 1\n            -locators 1\n            -manipulators 1\n            -dimensions 1\n            -handles 1\n            -pivots 1\n            -textures 1\n            -strokes 1\n            -shadows 0\n            $editorName;\nmodelEditor -e -viewSelected 0 $editorName;\n\t\tif (!$useSceneConfig) {\n\t\t\tpanel -e -l $label $panelName;\n\t\t}\n\t}\n\n\n\t$panelName = `sceneUIReplacement -getNextPanel \"outlinerPanel\" (localizedPanelLabel(\"Outliner\")) `;\n"
		+ "\tif (\"\" == $panelName) {\n\t\tif ($useSceneConfig) {\n\t\t\t$panelName = `outlinerPanel -unParent -l (localizedPanelLabel(\"Outliner\")) -mbv $menusOkayInPanels `;\n\t\t\t$editorName = $panelName;\n            outlinerEditor -e \n                -showShapes 0\n                -showAttributes 0\n                -showConnected 0\n                -showAnimCurvesOnly 0\n                -showMuteInfo 0\n                -organizeByLayer 1\n                -showAnimLayerWeight 1\n                -autoExpandLayers 1\n                -autoExpand 0\n                -showDagOnly 1\n                -showAssets 1\n                -showContainedOnly 0\n                -showPublishedAsConnected 0\n                -showContainerContents 1\n                -ignoreDagHierarchy 0\n                -expandConnections 0\n                -showUpstreamCurves 1\n                -showUnitlessCurves 1\n                -showCompounds 1\n                -showLeafs 1\n                -showNumericAttrsOnly 0\n                -highlightActive 1\n                -autoSelectNewObjects 0\n"
		+ "                -doNotSelectNewObjects 0\n                -dropIsParent 1\n                -transmitFilters 0\n                -setFilter \"defaultSetFilter\" \n                -showSetMembers 1\n                -allowMultiSelection 1\n                -alwaysToggleSelect 0\n                -directSelect 0\n                -displayMode \"DAG\" \n                -expandObjects 0\n                -setsIgnoreFilters 1\n                -containersIgnoreFilters 0\n                -editAttrName 0\n                -showAttrValues 0\n                -highlightSecondary 0\n                -showUVAttrsOnly 0\n                -showTextureNodesOnly 0\n                -attrAlphaOrder \"default\" \n                -animLayerFilterOptions \"allAffecting\" \n                -sortOrder \"none\" \n                -longNames 0\n                -niceNames 1\n                -showNamespace 1\n                -showPinIcons 0\n                $editorName;\n\t\t}\n\t} else {\n\t\t$label = `panel -q -label $panelName`;\n\t\toutlinerPanel -edit -l (localizedPanelLabel(\"Outliner\")) -mbv $menusOkayInPanels  $panelName;\n"
		+ "\t\t$editorName = $panelName;\n        outlinerEditor -e \n            -showShapes 0\n            -showAttributes 0\n            -showConnected 0\n            -showAnimCurvesOnly 0\n            -showMuteInfo 0\n            -organizeByLayer 1\n            -showAnimLayerWeight 1\n            -autoExpandLayers 1\n            -autoExpand 0\n            -showDagOnly 1\n            -showAssets 1\n            -showContainedOnly 0\n            -showPublishedAsConnected 0\n            -showContainerContents 1\n            -ignoreDagHierarchy 0\n            -expandConnections 0\n            -showUpstreamCurves 1\n            -showUnitlessCurves 1\n            -showCompounds 1\n            -showLeafs 1\n            -showNumericAttrsOnly 0\n            -highlightActive 1\n            -autoSelectNewObjects 0\n            -doNotSelectNewObjects 0\n            -dropIsParent 1\n            -transmitFilters 0\n            -setFilter \"defaultSetFilter\" \n            -showSetMembers 1\n            -allowMultiSelection 1\n            -alwaysToggleSelect 0\n            -directSelect 0\n"
		+ "            -displayMode \"DAG\" \n            -expandObjects 0\n            -setsIgnoreFilters 1\n            -containersIgnoreFilters 0\n            -editAttrName 0\n            -showAttrValues 0\n            -highlightSecondary 0\n            -showUVAttrsOnly 0\n            -showTextureNodesOnly 0\n            -attrAlphaOrder \"default\" \n            -animLayerFilterOptions \"allAffecting\" \n            -sortOrder \"none\" \n            -longNames 0\n            -niceNames 1\n            -showNamespace 1\n            -showPinIcons 0\n            $editorName;\n\t\tif (!$useSceneConfig) {\n\t\t\tpanel -e -l $label $panelName;\n\t\t}\n\t}\n\n\n\t$panelName = `sceneUIReplacement -getNextScriptedPanel \"graphEditor\" (localizedPanelLabel(\"Graph Editor\")) `;\n\tif (\"\" == $panelName) {\n\t\tif ($useSceneConfig) {\n\t\t\t$panelName = `scriptedPanel -unParent  -type \"graphEditor\" -l (localizedPanelLabel(\"Graph Editor\")) -mbv $menusOkayInPanels `;\n\n\t\t\t$editorName = ($panelName+\"OutlineEd\");\n            outlinerEditor -e \n                -showShapes 1\n                -showAttributes 1\n"
		+ "                -showConnected 1\n                -showAnimCurvesOnly 1\n                -showMuteInfo 0\n                -organizeByLayer 1\n                -showAnimLayerWeight 1\n                -autoExpandLayers 1\n                -autoExpand 1\n                -showDagOnly 0\n                -showAssets 1\n                -showContainedOnly 0\n                -showPublishedAsConnected 0\n                -showContainerContents 0\n                -ignoreDagHierarchy 0\n                -expandConnections 1\n                -showUpstreamCurves 1\n                -showUnitlessCurves 1\n                -showCompounds 0\n                -showLeafs 1\n                -showNumericAttrsOnly 1\n                -highlightActive 0\n                -autoSelectNewObjects 1\n                -doNotSelectNewObjects 0\n                -dropIsParent 1\n                -transmitFilters 1\n                -setFilter \"0\" \n                -showSetMembers 0\n                -allowMultiSelection 1\n                -alwaysToggleSelect 0\n                -directSelect 0\n"
		+ "                -displayMode \"DAG\" \n                -expandObjects 0\n                -setsIgnoreFilters 1\n                -containersIgnoreFilters 0\n                -editAttrName 0\n                -showAttrValues 0\n                -highlightSecondary 0\n                -showUVAttrsOnly 0\n                -showTextureNodesOnly 0\n                -attrAlphaOrder \"default\" \n                -animLayerFilterOptions \"allAffecting\" \n                -sortOrder \"none\" \n                -longNames 0\n                -niceNames 1\n                -showNamespace 1\n                -showPinIcons 1\n                $editorName;\n\n\t\t\t$editorName = ($panelName+\"GraphEd\");\n            animCurveEditor -e \n                -displayKeys 1\n                -displayTangents 0\n                -displayActiveKeys 0\n                -displayActiveKeyTangents 1\n                -displayInfinities 0\n                -autoFit 0\n                -snapTime \"integer\" \n                -snapValue \"none\" \n                -showResults \"off\" \n                -showBufferCurves \"off\" \n"
		+ "                -smoothness \"fine\" \n                -resultSamples 1\n                -resultScreenSamples 0\n                -resultUpdate \"delayed\" \n                -showUpstreamCurves 1\n                -stackedCurves 0\n                -stackedCurvesMin -1\n                -stackedCurvesMax 1\n                -stackedCurvesSpace 0.2\n                -displayNormalized 0\n                -preSelectionHighlight 0\n                -constrainDrag 0\n                $editorName;\n\t\t}\n\t} else {\n\t\t$label = `panel -q -label $panelName`;\n\t\tscriptedPanel -edit -l (localizedPanelLabel(\"Graph Editor\")) -mbv $menusOkayInPanels  $panelName;\n\n\t\t\t$editorName = ($panelName+\"OutlineEd\");\n            outlinerEditor -e \n                -showShapes 1\n                -showAttributes 1\n                -showConnected 1\n                -showAnimCurvesOnly 1\n                -showMuteInfo 0\n                -organizeByLayer 1\n                -showAnimLayerWeight 1\n                -autoExpandLayers 1\n                -autoExpand 1\n                -showDagOnly 0\n"
		+ "                -showAssets 1\n                -showContainedOnly 0\n                -showPublishedAsConnected 0\n                -showContainerContents 0\n                -ignoreDagHierarchy 0\n                -expandConnections 1\n                -showUpstreamCurves 1\n                -showUnitlessCurves 1\n                -showCompounds 0\n                -showLeafs 1\n                -showNumericAttrsOnly 1\n                -highlightActive 0\n                -autoSelectNewObjects 1\n                -doNotSelectNewObjects 0\n                -dropIsParent 1\n                -transmitFilters 1\n                -setFilter \"0\" \n                -showSetMembers 0\n                -allowMultiSelection 1\n                -alwaysToggleSelect 0\n                -directSelect 0\n                -displayMode \"DAG\" \n                -expandObjects 0\n                -setsIgnoreFilters 1\n                -containersIgnoreFilters 0\n                -editAttrName 0\n                -showAttrValues 0\n                -highlightSecondary 0\n                -showUVAttrsOnly 0\n"
		+ "                -showTextureNodesOnly 0\n                -attrAlphaOrder \"default\" \n                -animLayerFilterOptions \"allAffecting\" \n                -sortOrder \"none\" \n                -longNames 0\n                -niceNames 1\n                -showNamespace 1\n                -showPinIcons 1\n                $editorName;\n\n\t\t\t$editorName = ($panelName+\"GraphEd\");\n            animCurveEditor -e \n                -displayKeys 1\n                -displayTangents 0\n                -displayActiveKeys 0\n                -displayActiveKeyTangents 1\n                -displayInfinities 0\n                -autoFit 0\n                -snapTime \"integer\" \n                -snapValue \"none\" \n                -showResults \"off\" \n                -showBufferCurves \"off\" \n                -smoothness \"fine\" \n                -resultSamples 1\n                -resultScreenSamples 0\n                -resultUpdate \"delayed\" \n                -showUpstreamCurves 1\n                -stackedCurves 0\n                -stackedCurvesMin -1\n                -stackedCurvesMax 1\n"
		+ "                -stackedCurvesSpace 0.2\n                -displayNormalized 0\n                -preSelectionHighlight 0\n                -constrainDrag 0\n                $editorName;\n\t\tif (!$useSceneConfig) {\n\t\t\tpanel -e -l $label $panelName;\n\t\t}\n\t}\n\n\n\t$panelName = `sceneUIReplacement -getNextScriptedPanel \"dopeSheetPanel\" (localizedPanelLabel(\"Dope Sheet\")) `;\n\tif (\"\" == $panelName) {\n\t\tif ($useSceneConfig) {\n\t\t\t$panelName = `scriptedPanel -unParent  -type \"dopeSheetPanel\" -l (localizedPanelLabel(\"Dope Sheet\")) -mbv $menusOkayInPanels `;\n\n\t\t\t$editorName = ($panelName+\"OutlineEd\");\n            outlinerEditor -e \n                -showShapes 1\n                -showAttributes 1\n                -showConnected 1\n                -showAnimCurvesOnly 1\n                -showMuteInfo 0\n                -organizeByLayer 1\n                -showAnimLayerWeight 1\n                -autoExpandLayers 1\n                -autoExpand 0\n                -showDagOnly 0\n                -showAssets 1\n                -showContainedOnly 0\n                -showPublishedAsConnected 0\n"
		+ "                -showContainerContents 0\n                -ignoreDagHierarchy 0\n                -expandConnections 1\n                -showUpstreamCurves 1\n                -showUnitlessCurves 0\n                -showCompounds 1\n                -showLeafs 1\n                -showNumericAttrsOnly 1\n                -highlightActive 0\n                -autoSelectNewObjects 0\n                -doNotSelectNewObjects 1\n                -dropIsParent 1\n                -transmitFilters 0\n                -setFilter \"0\" \n                -showSetMembers 0\n                -allowMultiSelection 1\n                -alwaysToggleSelect 0\n                -directSelect 0\n                -displayMode \"DAG\" \n                -expandObjects 0\n                -setsIgnoreFilters 1\n                -containersIgnoreFilters 0\n                -editAttrName 0\n                -showAttrValues 0\n                -highlightSecondary 0\n                -showUVAttrsOnly 0\n                -showTextureNodesOnly 0\n                -attrAlphaOrder \"default\" \n                -animLayerFilterOptions \"allAffecting\" \n"
		+ "                -sortOrder \"none\" \n                -longNames 0\n                -niceNames 1\n                -showNamespace 1\n                -showPinIcons 0\n                $editorName;\n\n\t\t\t$editorName = ($panelName+\"DopeSheetEd\");\n            dopeSheetEditor -e \n                -displayKeys 1\n                -displayTangents 0\n                -displayActiveKeys 0\n                -displayActiveKeyTangents 0\n                -displayInfinities 0\n                -autoFit 0\n                -snapTime \"integer\" \n                -snapValue \"none\" \n                -outliner \"dopeSheetPanel1OutlineEd\" \n                -showSummary 1\n                -showScene 0\n                -hierarchyBelow 0\n                -showTicks 1\n                -selectionWindow 0 0 0 0 \n                $editorName;\n\t\t}\n\t} else {\n\t\t$label = `panel -q -label $panelName`;\n\t\tscriptedPanel -edit -l (localizedPanelLabel(\"Dope Sheet\")) -mbv $menusOkayInPanels  $panelName;\n\n\t\t\t$editorName = ($panelName+\"OutlineEd\");\n            outlinerEditor -e \n                -showShapes 1\n"
		+ "                -showAttributes 1\n                -showConnected 1\n                -showAnimCurvesOnly 1\n                -showMuteInfo 0\n                -organizeByLayer 1\n                -showAnimLayerWeight 1\n                -autoExpandLayers 1\n                -autoExpand 0\n                -showDagOnly 0\n                -showAssets 1\n                -showContainedOnly 0\n                -showPublishedAsConnected 0\n                -showContainerContents 0\n                -ignoreDagHierarchy 0\n                -expandConnections 1\n                -showUpstreamCurves 1\n                -showUnitlessCurves 0\n                -showCompounds 1\n                -showLeafs 1\n                -showNumericAttrsOnly 1\n                -highlightActive 0\n                -autoSelectNewObjects 0\n                -doNotSelectNewObjects 1\n                -dropIsParent 1\n                -transmitFilters 0\n                -setFilter \"0\" \n                -showSetMembers 0\n                -allowMultiSelection 1\n                -alwaysToggleSelect 0\n"
		+ "                -directSelect 0\n                -displayMode \"DAG\" \n                -expandObjects 0\n                -setsIgnoreFilters 1\n                -containersIgnoreFilters 0\n                -editAttrName 0\n                -showAttrValues 0\n                -highlightSecondary 0\n                -showUVAttrsOnly 0\n                -showTextureNodesOnly 0\n                -attrAlphaOrder \"default\" \n                -animLayerFilterOptions \"allAffecting\" \n                -sortOrder \"none\" \n                -longNames 0\n                -niceNames 1\n                -showNamespace 1\n                -showPinIcons 0\n                $editorName;\n\n\t\t\t$editorName = ($panelName+\"DopeSheetEd\");\n            dopeSheetEditor -e \n                -displayKeys 1\n                -displayTangents 0\n                -displayActiveKeys 0\n                -displayActiveKeyTangents 0\n                -displayInfinities 0\n                -autoFit 0\n                -snapTime \"integer\" \n                -snapValue \"none\" \n                -outliner \"dopeSheetPanel1OutlineEd\" \n"
		+ "                -showSummary 1\n                -showScene 0\n                -hierarchyBelow 0\n                -showTicks 1\n                -selectionWindow 0 0 0 0 \n                $editorName;\n\t\tif (!$useSceneConfig) {\n\t\t\tpanel -e -l $label $panelName;\n\t\t}\n\t}\n\n\n\t$panelName = `sceneUIReplacement -getNextScriptedPanel \"clipEditorPanel\" (localizedPanelLabel(\"Trax Editor\")) `;\n\tif (\"\" == $panelName) {\n\t\tif ($useSceneConfig) {\n\t\t\t$panelName = `scriptedPanel -unParent  -type \"clipEditorPanel\" -l (localizedPanelLabel(\"Trax Editor\")) -mbv $menusOkayInPanels `;\n\n\t\t\t$editorName = clipEditorNameFromPanel($panelName);\n            clipEditor -e \n                -displayKeys 0\n                -displayTangents 0\n                -displayActiveKeys 0\n                -displayActiveKeyTangents 0\n                -displayInfinities 0\n                -autoFit 0\n                -snapTime \"none\" \n                -snapValue \"none\" \n                -manageSequencer 0 \n                $editorName;\n\t\t}\n\t} else {\n\t\t$label = `panel -q -label $panelName`;\n"
		+ "\t\tscriptedPanel -edit -l (localizedPanelLabel(\"Trax Editor\")) -mbv $menusOkayInPanels  $panelName;\n\n\t\t\t$editorName = clipEditorNameFromPanel($panelName);\n            clipEditor -e \n                -displayKeys 0\n                -displayTangents 0\n                -displayActiveKeys 0\n                -displayActiveKeyTangents 0\n                -displayInfinities 0\n                -autoFit 0\n                -snapTime \"none\" \n                -snapValue \"none\" \n                -manageSequencer 0 \n                $editorName;\n\t\tif (!$useSceneConfig) {\n\t\t\tpanel -e -l $label $panelName;\n\t\t}\n\t}\n\n\n\t$panelName = `sceneUIReplacement -getNextScriptedPanel \"hyperGraphPanel\" (localizedPanelLabel(\"Hypergraph Hierarchy\")) `;\n\tif (\"\" == $panelName) {\n\t\tif ($useSceneConfig) {\n\t\t\t$panelName = `scriptedPanel -unParent  -type \"hyperGraphPanel\" -l (localizedPanelLabel(\"Hypergraph Hierarchy\")) -mbv $menusOkayInPanels `;\n\n\t\t\t$editorName = ($panelName+\"HyperGraphEd\");\n            hyperGraph -e \n                -graphLayoutStyle \"hierarchicalLayout\" \n"
		+ "                -orientation \"horiz\" \n                -mergeConnections 1\n                -zoom 1\n                -animateTransition 0\n                -showRelationships 1\n                -showShapes 0\n                -showDeformers 0\n                -showExpressions 0\n                -showConstraints 0\n                -showUnderworld 0\n                -showInvisible 0\n                -transitionFrames 1\n                -opaqueContainers 0\n                -freeform 0\n                -imagePosition 0 0 \n                -imageScale 1\n                -imageEnabled 0\n                -graphType \"DAG\" \n                -heatMapDisplay 0\n                -updateSelection 1\n                -updateNodeAdded 1\n                -useDrawOverrideColor 0\n                -limitGraphTraversal -1\n                -range 0 0 \n                -iconSize \"largeIcons\" \n                -showCachedConnections 0\n                $editorName;\n\t\t}\n\t} else {\n\t\t$label = `panel -q -label $panelName`;\n\t\tscriptedPanel -edit -l (localizedPanelLabel(\"Hypergraph Hierarchy\")) -mbv $menusOkayInPanels  $panelName;\n"
		+ "\t\t\t$editorName = ($panelName+\"HyperGraphEd\");\n            hyperGraph -e \n                -graphLayoutStyle \"hierarchicalLayout\" \n                -orientation \"horiz\" \n                -mergeConnections 1\n                -zoom 1\n                -animateTransition 0\n                -showRelationships 1\n                -showShapes 0\n                -showDeformers 0\n                -showExpressions 0\n                -showConstraints 0\n                -showUnderworld 0\n                -showInvisible 0\n                -transitionFrames 1\n                -opaqueContainers 0\n                -freeform 0\n                -imagePosition 0 0 \n                -imageScale 1\n                -imageEnabled 0\n                -graphType \"DAG\" \n                -heatMapDisplay 0\n                -updateSelection 1\n                -updateNodeAdded 1\n                -useDrawOverrideColor 0\n                -limitGraphTraversal -1\n                -range 0 0 \n                -iconSize \"largeIcons\" \n                -showCachedConnections 0\n"
		+ "                $editorName;\n\t\tif (!$useSceneConfig) {\n\t\t\tpanel -e -l $label $panelName;\n\t\t}\n\t}\n\n\n\t$panelName = `sceneUIReplacement -getNextScriptedPanel \"hyperShadePanel\" (localizedPanelLabel(\"Hypershade\")) `;\n\tif (\"\" == $panelName) {\n\t\tif ($useSceneConfig) {\n\t\t\t$panelName = `scriptedPanel -unParent  -type \"hyperShadePanel\" -l (localizedPanelLabel(\"Hypershade\")) -mbv $menusOkayInPanels `;\n\t\t}\n\t} else {\n\t\t$label = `panel -q -label $panelName`;\n\t\tscriptedPanel -edit -l (localizedPanelLabel(\"Hypershade\")) -mbv $menusOkayInPanels  $panelName;\n\t\tif (!$useSceneConfig) {\n\t\t\tpanel -e -l $label $panelName;\n\t\t}\n\t}\n\n\n\t$panelName = `sceneUIReplacement -getNextScriptedPanel \"visorPanel\" (localizedPanelLabel(\"Visor\")) `;\n\tif (\"\" == $panelName) {\n\t\tif ($useSceneConfig) {\n\t\t\t$panelName = `scriptedPanel -unParent  -type \"visorPanel\" -l (localizedPanelLabel(\"Visor\")) -mbv $menusOkayInPanels `;\n\t\t}\n\t} else {\n\t\t$label = `panel -q -label $panelName`;\n\t\tscriptedPanel -edit -l (localizedPanelLabel(\"Visor\")) -mbv $menusOkayInPanels  $panelName;\n"
		+ "\t\tif (!$useSceneConfig) {\n\t\t\tpanel -e -l $label $panelName;\n\t\t}\n\t}\n\n\n\t$panelName = `sceneUIReplacement -getNextScriptedPanel \"polyTexturePlacementPanel\" (localizedPanelLabel(\"UV Texture Editor\")) `;\n\tif (\"\" == $panelName) {\n\t\tif ($useSceneConfig) {\n\t\t\t$panelName = `scriptedPanel -unParent  -type \"polyTexturePlacementPanel\" -l (localizedPanelLabel(\"UV Texture Editor\")) -mbv $menusOkayInPanels `;\n\t\t}\n\t} else {\n\t\t$label = `panel -q -label $panelName`;\n\t\tscriptedPanel -edit -l (localizedPanelLabel(\"UV Texture Editor\")) -mbv $menusOkayInPanels  $panelName;\n\t\tif (!$useSceneConfig) {\n\t\t\tpanel -e -l $label $panelName;\n\t\t}\n\t}\n\n\n\t$panelName = `sceneUIReplacement -getNextScriptedPanel \"renderWindowPanel\" (localizedPanelLabel(\"Render View\")) `;\n\tif (\"\" == $panelName) {\n\t\tif ($useSceneConfig) {\n\t\t\t$panelName = `scriptedPanel -unParent  -type \"renderWindowPanel\" -l (localizedPanelLabel(\"Render View\")) -mbv $menusOkayInPanels `;\n\t\t}\n\t} else {\n\t\t$label = `panel -q -label $panelName`;\n\t\tscriptedPanel -edit -l (localizedPanelLabel(\"Render View\")) -mbv $menusOkayInPanels  $panelName;\n"
		+ "\t\tif (!$useSceneConfig) {\n\t\t\tpanel -e -l $label $panelName;\n\t\t}\n\t}\n\n\n\t$panelName = `sceneUIReplacement -getNextPanel \"blendShapePanel\" (localizedPanelLabel(\"Blend Shape\")) `;\n\tif (\"\" == $panelName) {\n\t\tif ($useSceneConfig) {\n\t\t\tblendShapePanel -unParent -l (localizedPanelLabel(\"Blend Shape\")) -mbv $menusOkayInPanels ;\n\t\t}\n\t} else {\n\t\t$label = `panel -q -label $panelName`;\n\t\tblendShapePanel -edit -l (localizedPanelLabel(\"Blend Shape\")) -mbv $menusOkayInPanels  $panelName;\n\t\tif (!$useSceneConfig) {\n\t\t\tpanel -e -l $label $panelName;\n\t\t}\n\t}\n\n\n\t$panelName = `sceneUIReplacement -getNextScriptedPanel \"dynRelEdPanel\" (localizedPanelLabel(\"Dynamic Relationships\")) `;\n\tif (\"\" == $panelName) {\n\t\tif ($useSceneConfig) {\n\t\t\t$panelName = `scriptedPanel -unParent  -type \"dynRelEdPanel\" -l (localizedPanelLabel(\"Dynamic Relationships\")) -mbv $menusOkayInPanels `;\n\t\t}\n\t} else {\n\t\t$label = `panel -q -label $panelName`;\n\t\tscriptedPanel -edit -l (localizedPanelLabel(\"Dynamic Relationships\")) -mbv $menusOkayInPanels  $panelName;\n\t\tif (!$useSceneConfig) {\n"
		+ "\t\t\tpanel -e -l $label $panelName;\n\t\t}\n\t}\n\n\n\t$panelName = `sceneUIReplacement -getNextScriptedPanel \"relationshipPanel\" (localizedPanelLabel(\"Relationship Editor\")) `;\n\tif (\"\" == $panelName) {\n\t\tif ($useSceneConfig) {\n\t\t\t$panelName = `scriptedPanel -unParent  -type \"relationshipPanel\" -l (localizedPanelLabel(\"Relationship Editor\")) -mbv $menusOkayInPanels `;\n\t\t}\n\t} else {\n\t\t$label = `panel -q -label $panelName`;\n\t\tscriptedPanel -edit -l (localizedPanelLabel(\"Relationship Editor\")) -mbv $menusOkayInPanels  $panelName;\n\t\tif (!$useSceneConfig) {\n\t\t\tpanel -e -l $label $panelName;\n\t\t}\n\t}\n\n\n\t$panelName = `sceneUIReplacement -getNextScriptedPanel \"referenceEditorPanel\" (localizedPanelLabel(\"Reference Editor\")) `;\n\tif (\"\" == $panelName) {\n\t\tif ($useSceneConfig) {\n\t\t\t$panelName = `scriptedPanel -unParent  -type \"referenceEditorPanel\" -l (localizedPanelLabel(\"Reference Editor\")) -mbv $menusOkayInPanels `;\n\t\t}\n\t} else {\n\t\t$label = `panel -q -label $panelName`;\n\t\tscriptedPanel -edit -l (localizedPanelLabel(\"Reference Editor\")) -mbv $menusOkayInPanels  $panelName;\n"
		+ "\t\tif (!$useSceneConfig) {\n\t\t\tpanel -e -l $label $panelName;\n\t\t}\n\t}\n\n\n\t$panelName = `sceneUIReplacement -getNextScriptedPanel \"componentEditorPanel\" (localizedPanelLabel(\"Component Editor\")) `;\n\tif (\"\" == $panelName) {\n\t\tif ($useSceneConfig) {\n\t\t\t$panelName = `scriptedPanel -unParent  -type \"componentEditorPanel\" -l (localizedPanelLabel(\"Component Editor\")) -mbv $menusOkayInPanels `;\n\t\t}\n\t} else {\n\t\t$label = `panel -q -label $panelName`;\n\t\tscriptedPanel -edit -l (localizedPanelLabel(\"Component Editor\")) -mbv $menusOkayInPanels  $panelName;\n\t\tif (!$useSceneConfig) {\n\t\t\tpanel -e -l $label $panelName;\n\t\t}\n\t}\n\n\n\t$panelName = `sceneUIReplacement -getNextScriptedPanel \"dynPaintScriptedPanelType\" (localizedPanelLabel(\"Paint Effects\")) `;\n\tif (\"\" == $panelName) {\n\t\tif ($useSceneConfig) {\n\t\t\t$panelName = `scriptedPanel -unParent  -type \"dynPaintScriptedPanelType\" -l (localizedPanelLabel(\"Paint Effects\")) -mbv $menusOkayInPanels `;\n\t\t}\n\t} else {\n\t\t$label = `panel -q -label $panelName`;\n\t\tscriptedPanel -edit -l (localizedPanelLabel(\"Paint Effects\")) -mbv $menusOkayInPanels  $panelName;\n"
		+ "\t\tif (!$useSceneConfig) {\n\t\t\tpanel -e -l $label $panelName;\n\t\t}\n\t}\n\n\n\t$panelName = `sceneUIReplacement -getNextScriptedPanel \"scriptEditorPanel\" (localizedPanelLabel(\"Script Editor\")) `;\n\tif (\"\" == $panelName) {\n\t\tif ($useSceneConfig) {\n\t\t\t$panelName = `scriptedPanel -unParent  -type \"scriptEditorPanel\" -l (localizedPanelLabel(\"Script Editor\")) -mbv $menusOkayInPanels `;\n\t\t}\n\t} else {\n\t\t$label = `panel -q -label $panelName`;\n\t\tscriptedPanel -edit -l (localizedPanelLabel(\"Script Editor\")) -mbv $menusOkayInPanels  $panelName;\n\t\tif (!$useSceneConfig) {\n\t\t\tpanel -e -l $label $panelName;\n\t\t}\n\t}\n\n\n\t$panelName = `sceneUIReplacement -getNextScriptedPanel \"sequenceEditorPanel\" (localizedPanelLabel(\"Camera Sequencer\")) `;\n\tif (\"\" == $panelName) {\n\t\tif ($useSceneConfig) {\n\t\t\t$panelName = `scriptedPanel -unParent  -type \"sequenceEditorPanel\" -l (localizedPanelLabel(\"Camera Sequencer\")) -mbv $menusOkayInPanels `;\n\n\t\t\t$editorName = sequenceEditorNameFromPanel($panelName);\n            clipEditor -e \n                -displayKeys 0\n"
		+ "                -displayTangents 0\n                -displayActiveKeys 0\n                -displayActiveKeyTangents 0\n                -displayInfinities 0\n                -autoFit 0\n                -snapTime \"none\" \n                -snapValue \"none\" \n                -manageSequencer 1 \n                $editorName;\n\t\t}\n\t} else {\n\t\t$label = `panel -q -label $panelName`;\n\t\tscriptedPanel -edit -l (localizedPanelLabel(\"Camera Sequencer\")) -mbv $menusOkayInPanels  $panelName;\n\n\t\t\t$editorName = sequenceEditorNameFromPanel($panelName);\n            clipEditor -e \n                -displayKeys 0\n                -displayTangents 0\n                -displayActiveKeys 0\n                -displayActiveKeyTangents 0\n                -displayInfinities 0\n                -autoFit 0\n                -snapTime \"none\" \n                -snapValue \"none\" \n                -manageSequencer 1 \n                $editorName;\n\t\tif (!$useSceneConfig) {\n\t\t\tpanel -e -l $label $panelName;\n\t\t}\n\t}\n\n\n\t$panelName = `sceneUIReplacement -getNextScriptedPanel \"Stereo\" (localizedPanelLabel(\"Stereo\")) `;\n"
		+ "\tif (\"\" == $panelName) {\n\t\tif ($useSceneConfig) {\n\t\t\t$panelName = `scriptedPanel -unParent  -type \"Stereo\" -l (localizedPanelLabel(\"Stereo\")) -mbv $menusOkayInPanels `;\nstring $editorName = ($panelName+\"Editor\");\n            stereoCameraView -e \n                -camera \"persp\" \n                -useInteractiveMode 0\n                -displayLights \"default\" \n                -displayAppearance \"wireframe\" \n                -activeOnly 0\n                -ignorePanZoom 0\n                -wireframeOnShaded 0\n                -headsUpDisplay 1\n                -selectionHiliteDisplay 1\n                -useDefaultMaterial 0\n                -bufferMode \"double\" \n                -twoSidedLighting 1\n                -backfaceCulling 0\n                -xray 0\n                -jointXray 0\n                -activeComponentsXray 0\n                -displayTextures 0\n                -smoothWireframe 0\n                -lineWidth 1\n                -textureAnisotropic 0\n                -textureHilight 1\n                -textureSampling 2\n"
		+ "                -textureDisplay \"modulate\" \n                -textureMaxSize 8192\n                -fogging 0\n                -fogSource \"fragment\" \n                -fogMode \"linear\" \n                -fogStart 0\n                -fogEnd 100\n                -fogDensity 0.1\n                -fogColor 0.5 0.5 0.5 1 \n                -maxConstantTransparency 1\n                -colorResolution 4 4 \n                -bumpResolution 4 4 \n                -textureCompression 0\n                -transparencyAlgorithm \"frontAndBackCull\" \n                -transpInShadows 0\n                -cullingOverride \"none\" \n                -lowQualityLighting 0\n                -maximumNumHardwareLights 0\n                -occlusionCulling 0\n                -shadingModel 0\n                -useBaseRenderer 0\n                -useReducedRenderer 0\n                -smallObjectCulling 0\n                -smallObjectThreshold -1 \n                -interactiveDisableShadows 0\n                -interactiveBackFaceCull 0\n                -sortTransparent 1\n"
		+ "                -nurbsCurves 1\n                -nurbsSurfaces 1\n                -polymeshes 1\n                -subdivSurfaces 1\n                -planes 1\n                -lights 1\n                -cameras 1\n                -controlVertices 1\n                -hulls 1\n                -grid 1\n                -joints 1\n                -ikHandles 1\n                -deformers 1\n                -dynamics 1\n                -fluids 1\n                -hairSystems 1\n                -follicles 1\n                -nCloths 1\n                -nParticles 1\n                -nRigids 1\n                -dynamicConstraints 1\n                -locators 1\n                -manipulators 1\n                -dimensions 1\n                -handles 1\n                -pivots 1\n                -textures 1\n                -strokes 1\n                -shadows 0\n                -displayMode \"centerEye\" \n                -viewColor 0 0 0 1 \n                $editorName;\nstereoCameraView -e -viewSelected 0 $editorName;\n\t\t}\n\t} else {\n\t\t$label = `panel -q -label $panelName`;\n"
		+ "\t\tscriptedPanel -edit -l (localizedPanelLabel(\"Stereo\")) -mbv $menusOkayInPanels  $panelName;\nstring $editorName = ($panelName+\"Editor\");\n            stereoCameraView -e \n                -camera \"persp\" \n                -useInteractiveMode 0\n                -displayLights \"default\" \n                -displayAppearance \"wireframe\" \n                -activeOnly 0\n                -ignorePanZoom 0\n                -wireframeOnShaded 0\n                -headsUpDisplay 1\n                -selectionHiliteDisplay 1\n                -useDefaultMaterial 0\n                -bufferMode \"double\" \n                -twoSidedLighting 1\n                -backfaceCulling 0\n                -xray 0\n                -jointXray 0\n                -activeComponentsXray 0\n                -displayTextures 0\n                -smoothWireframe 0\n                -lineWidth 1\n                -textureAnisotropic 0\n                -textureHilight 1\n                -textureSampling 2\n                -textureDisplay \"modulate\" \n                -textureMaxSize 8192\n"
		+ "                -fogging 0\n                -fogSource \"fragment\" \n                -fogMode \"linear\" \n                -fogStart 0\n                -fogEnd 100\n                -fogDensity 0.1\n                -fogColor 0.5 0.5 0.5 1 \n                -maxConstantTransparency 1\n                -colorResolution 4 4 \n                -bumpResolution 4 4 \n                -textureCompression 0\n                -transparencyAlgorithm \"frontAndBackCull\" \n                -transpInShadows 0\n                -cullingOverride \"none\" \n                -lowQualityLighting 0\n                -maximumNumHardwareLights 0\n                -occlusionCulling 0\n                -shadingModel 0\n                -useBaseRenderer 0\n                -useReducedRenderer 0\n                -smallObjectCulling 0\n                -smallObjectThreshold -1 \n                -interactiveDisableShadows 0\n                -interactiveBackFaceCull 0\n                -sortTransparent 1\n                -nurbsCurves 1\n                -nurbsSurfaces 1\n                -polymeshes 1\n"
		+ "                -subdivSurfaces 1\n                -planes 1\n                -lights 1\n                -cameras 1\n                -controlVertices 1\n                -hulls 1\n                -grid 1\n                -joints 1\n                -ikHandles 1\n                -deformers 1\n                -dynamics 1\n                -fluids 1\n                -hairSystems 1\n                -follicles 1\n                -nCloths 1\n                -nParticles 1\n                -nRigids 1\n                -dynamicConstraints 1\n                -locators 1\n                -manipulators 1\n                -dimensions 1\n                -handles 1\n                -pivots 1\n                -textures 1\n                -strokes 1\n                -shadows 0\n                -displayMode \"centerEye\" \n                -viewColor 0 0 0 1 \n                $editorName;\nstereoCameraView -e -viewSelected 0 $editorName;\n\t\tif (!$useSceneConfig) {\n\t\t\tpanel -e -l $label $panelName;\n\t\t}\n\t}\n\n\n\t$panelName = `sceneUIReplacement -getNextScriptedPanel \"multiListerPanel\" (localizedPanelLabel(\"Multilister\")) `;\n"
		+ "\tif (\"\" == $panelName) {\n\t\tif ($useSceneConfig) {\n\t\t\t$panelName = `scriptedPanel -unParent  -type \"multiListerPanel\" -l (localizedPanelLabel(\"Multilister\")) -mbv $menusOkayInPanels `;\n\t\t}\n\t} else {\n\t\t$label = `panel -q -label $panelName`;\n\t\tscriptedPanel -edit -l (localizedPanelLabel(\"Multilister\")) -mbv $menusOkayInPanels  $panelName;\n\t\tif (!$useSceneConfig) {\n\t\t\tpanel -e -l $label $panelName;\n\t\t}\n\t}\n\n\n\t$panelName = `sceneUIReplacement -getNextPanel \"devicePanel\" (localizedPanelLabel(\"Devices\")) `;\n\tif (\"\" == $panelName) {\n\t\tif ($useSceneConfig) {\n\t\t\tdevicePanel -unParent -l (localizedPanelLabel(\"Devices\")) -mbv $menusOkayInPanels ;\n\t\t}\n\t} else {\n\t\t$label = `panel -q -label $panelName`;\n\t\tdevicePanel -edit -l (localizedPanelLabel(\"Devices\")) -mbv $menusOkayInPanels  $panelName;\n\t\tif (!$useSceneConfig) {\n\t\t\tpanel -e -l $label $panelName;\n\t\t}\n\t}\n\n\n\t$panelName = `sceneUIReplacement -getNextScriptedPanel \"webBrowserPanel\" (localizedPanelLabel(\"Web Browser\")) `;\n\tif (\"\" == $panelName) {\n\t\tif ($useSceneConfig) {\n\t\t\t$panelName = `scriptedPanel -unParent  -type \"webBrowserPanel\" -l (localizedPanelLabel(\"Web Browser\")) -mbv $menusOkayInPanels `;\n"
		+ "\t\t}\n\t} else {\n\t\t$label = `panel -q -label $panelName`;\n\t\tscriptedPanel -edit -l (localizedPanelLabel(\"Web Browser\")) -mbv $menusOkayInPanels  $panelName;\n\t\tif (!$useSceneConfig) {\n\t\t\tpanel -e -l $label $panelName;\n\t\t}\n\t}\n\n\n\tif ($useSceneConfig) {\n        string $configName = `getPanel -cwl (localizedPanelLabel(\"Current Layout\"))`;\n        if (\"\" != $configName) {\n\t\t\tpanelConfiguration -edit -label (localizedPanelLabel(\"Current Layout\")) \n\t\t\t\t-defaultImage \"\"\n\t\t\t\t-image \"\"\n\t\t\t\t-sc false\n\t\t\t\t-configString \"global string $gMainPane; paneLayout -e -cn \\\"single\\\" -ps 1 100 100 $gMainPane;\"\n\t\t\t\t-removeAllPanels\n\t\t\t\t-ap false\n\t\t\t\t\t(localizedPanelLabel(\"Top View\")) \n\t\t\t\t\t\"modelPanel\"\n"
		+ "\t\t\t\t\t\"$panelName = `modelPanel -unParent -l (localizedPanelLabel(\\\"Top View\\\")) -mbv $menusOkayInPanels `;\\n$editorName = $panelName;\\nmodelEditor -e \\n    -camera \\\"persp\\\" \\n    -useInteractiveMode 0\\n    -displayLights \\\"default\\\" \\n    -displayAppearance \\\"smoothShaded\\\" \\n    -activeOnly 0\\n    -ignorePanZoom 0\\n    -wireframeOnShaded 0\\n    -headsUpDisplay 1\\n    -selectionHiliteDisplay 1\\n    -useDefaultMaterial 0\\n    -bufferMode \\\"double\\\" \\n    -twoSidedLighting 1\\n    -backfaceCulling 0\\n    -xray 0\\n    -jointXray 0\\n    -activeComponentsXray 0\\n    -displayTextures 0\\n    -smoothWireframe 0\\n    -lineWidth 1\\n    -textureAnisotropic 0\\n    -textureHilight 1\\n    -textureSampling 2\\n    -textureDisplay \\\"modulate\\\" \\n    -textureMaxSize 8192\\n    -fogging 0\\n    -fogSource \\\"fragment\\\" \\n    -fogMode \\\"linear\\\" \\n    -fogStart 0\\n    -fogEnd 100\\n    -fogDensity 0.1\\n    -fogColor 0.5 0.5 0.5 1 \\n    -maxConstantTransparency 1\\n    -rendererName \\\"base_OpenGL_Renderer\\\" \\n    -colorResolution 256 256 \\n    -bumpResolution 512 512 \\n    -textureCompression 0\\n    -transparencyAlgorithm \\\"frontAndBackCull\\\" \\n    -transpInShadows 0\\n    -cullingOverride \\\"none\\\" \\n    -lowQualityLighting 0\\n    -maximumNumHardwareLights 1\\n    -occlusionCulling 0\\n    -shadingModel 0\\n    -useBaseRenderer 0\\n    -useReducedRenderer 0\\n    -smallObjectCulling 0\\n    -smallObjectThreshold -1 \\n    -interactiveDisableShadows 0\\n    -interactiveBackFaceCull 0\\n    -sortTransparent 1\\n    -nurbsCurves 1\\n    -nurbsSurfaces 1\\n    -polymeshes 1\\n    -subdivSurfaces 1\\n    -planes 1\\n    -lights 1\\n    -cameras 1\\n    -controlVertices 1\\n    -hulls 1\\n    -grid 1\\n    -joints 1\\n    -ikHandles 1\\n    -deformers 1\\n    -dynamics 1\\n    -fluids 1\\n    -hairSystems 1\\n    -follicles 1\\n    -nCloths 1\\n    -nParticles 1\\n    -nRigids 1\\n    -dynamicConstraints 1\\n    -locators 1\\n    -manipulators 1\\n    -dimensions 1\\n    -handles 1\\n    -pivots 1\\n    -textures 1\\n    -strokes 1\\n    -shadows 0\\n    $editorName;\\nmodelEditor -e -viewSelected 0 $editorName\"\n"
		+ "\t\t\t\t\t\"modelPanel -edit -l (localizedPanelLabel(\\\"Top View\\\")) -mbv $menusOkayInPanels  $panelName;\\n$editorName = $panelName;\\nmodelEditor -e \\n    -camera \\\"persp\\\" \\n    -useInteractiveMode 0\\n    -displayLights \\\"default\\\" \\n    -displayAppearance \\\"smoothShaded\\\" \\n    -activeOnly 0\\n    -ignorePanZoom 0\\n    -wireframeOnShaded 0\\n    -headsUpDisplay 1\\n    -selectionHiliteDisplay 1\\n    -useDefaultMaterial 0\\n    -bufferMode \\\"double\\\" \\n    -twoSidedLighting 1\\n    -backfaceCulling 0\\n    -xray 0\\n    -jointXray 0\\n    -activeComponentsXray 0\\n    -displayTextures 0\\n    -smoothWireframe 0\\n    -lineWidth 1\\n    -textureAnisotropic 0\\n    -textureHilight 1\\n    -textureSampling 2\\n    -textureDisplay \\\"modulate\\\" \\n    -textureMaxSize 8192\\n    -fogging 0\\n    -fogSource \\\"fragment\\\" \\n    -fogMode \\\"linear\\\" \\n    -fogStart 0\\n    -fogEnd 100\\n    -fogDensity 0.1\\n    -fogColor 0.5 0.5 0.5 1 \\n    -maxConstantTransparency 1\\n    -rendererName \\\"base_OpenGL_Renderer\\\" \\n    -colorResolution 256 256 \\n    -bumpResolution 512 512 \\n    -textureCompression 0\\n    -transparencyAlgorithm \\\"frontAndBackCull\\\" \\n    -transpInShadows 0\\n    -cullingOverride \\\"none\\\" \\n    -lowQualityLighting 0\\n    -maximumNumHardwareLights 1\\n    -occlusionCulling 0\\n    -shadingModel 0\\n    -useBaseRenderer 0\\n    -useReducedRenderer 0\\n    -smallObjectCulling 0\\n    -smallObjectThreshold -1 \\n    -interactiveDisableShadows 0\\n    -interactiveBackFaceCull 0\\n    -sortTransparent 1\\n    -nurbsCurves 1\\n    -nurbsSurfaces 1\\n    -polymeshes 1\\n    -subdivSurfaces 1\\n    -planes 1\\n    -lights 1\\n    -cameras 1\\n    -controlVertices 1\\n    -hulls 1\\n    -grid 1\\n    -joints 1\\n    -ikHandles 1\\n    -deformers 1\\n    -dynamics 1\\n    -fluids 1\\n    -hairSystems 1\\n    -follicles 1\\n    -nCloths 1\\n    -nParticles 1\\n    -nRigids 1\\n    -dynamicConstraints 1\\n    -locators 1\\n    -manipulators 1\\n    -dimensions 1\\n    -handles 1\\n    -pivots 1\\n    -textures 1\\n    -strokes 1\\n    -shadows 0\\n    $editorName;\\nmodelEditor -e -viewSelected 0 $editorName\"\n"
		+ "\t\t\t\t$configName;\n\n            setNamedPanelLayout (localizedPanelLabel(\"Current Layout\"));\n        }\n\n        panelHistory -e -clear mainPanelHistory;\n        setFocus `paneLayout -q -p1 $gMainPane`;\n        sceneUIReplacement -deleteRemaining;\n        sceneUIReplacement -clear;\n\t}\n\n\ngrid -spacing 5 -size 12 -divisions 5 -displayAxes yes -displayGridLines yes -displayDivisionLines yes -displayPerspectiveLabels no -displayOrthographicLabels no -displayAxesBold yes -perspectiveLabelPosition axis -orthographicLabelPosition edge;\nviewManip -drawCompass 0 -compassAngle 0 -frontParameters \"\" -homeParameters \"\" -selectionLockParameters \"\";\n}\n");
	setAttr ".st" 3;
createNode script -n "sceneConfigurationScriptNode";
	setAttr ".b" -type "string" "playbackOptions -min 1 -max 100 -ast 1 -aet 100 ";
	setAttr ".st" 6;
createNode ramp -n "ramp1";
	setAttr -s 3 ".cel";
	setAttr ".cel[0].ep" 0;
	setAttr ".cel[0].ec" -type "float3" 1 0 0 ;
	setAttr ".cel[1].ep" 0.5;
	setAttr ".cel[1].ec" -type "float3" 0 1 0 ;
	setAttr ".cel[2].ep" 1;
	setAttr ".cel[2].ec" -type "float3" 0 0 1 ;
createNode group -n "group1";
	setAttr ".ct" 6;
	setAttr ".p" -type "string" "";
	setAttr ".dir" -type "double3" 0 0 0 ;
createNode polyPlane -n "polyPlane2";
	setAttr ".sw" 1;
	setAttr ".sh" 1;
	setAttr ".cuv" 2;
createNode geoConnector -n "geoConnector1";
	setAttr ".res" 0.2;
	setAttr ".fri" 0.5;
createNode dynGlobals -n "dynGlobals1";
createNode lambert -n "lambert2";
createNode shadingEngine -n "lambert2SG";
	setAttr ".ihi" 0;
	setAttr ".ro" yes;
createNode materialInfo -n "materialInfo1";
createNode mentalrayVertexColors -n "mentalrayVertexColors1";
createNode mentalrayItemsList -s -n "mentalrayItemsList";
createNode mentalrayGlobals -s -n "mentalrayGlobals";
	setAttr ".rvb" 3;
	setAttr ".ivb" no;
createNode mentalrayOptions -s -n "miDefaultOptions";
	addAttr -ci true -m -sn "stringOptions" -ln "stringOptions" -at "compound" -nc 
		3;
	addAttr -ci true -sn "name" -ln "name" -dt "string" -p "stringOptions";
	addAttr -ci true -sn "value" -ln "value" -dt "string" -p "stringOptions";
	addAttr -ci true -sn "type" -ln "type" -dt "string" -p "stringOptions";
	setAttr ".maxr" 2;
	setAttr -s 28 ".stringOptions";
	setAttr ".stringOptions[0].name" -type "string" "rast motion factor";
	setAttr ".stringOptions[0].value" -type "string" "1.0";
	setAttr ".stringOptions[0].type" -type "string" "scalar";
	setAttr ".stringOptions[1].name" -type "string" "rast transparency depth";
	setAttr ".stringOptions[1].value" -type "string" "8";
	setAttr ".stringOptions[1].type" -type "string" "integer";
	setAttr ".stringOptions[2].name" -type "string" "rast useopacity";
	setAttr ".stringOptions[2].value" -type "string" "true";
	setAttr ".stringOptions[2].type" -type "string" "boolean";
	setAttr ".stringOptions[3].name" -type "string" "importon";
	setAttr ".stringOptions[3].value" -type "string" "false";
	setAttr ".stringOptions[3].type" -type "string" "boolean";
	setAttr ".stringOptions[4].name" -type "string" "importon density";
	setAttr ".stringOptions[4].value" -type "string" "1.0";
	setAttr ".stringOptions[4].type" -type "string" "scalar";
	setAttr ".stringOptions[5].name" -type "string" "importon merge";
	setAttr ".stringOptions[5].value" -type "string" "0.0";
	setAttr ".stringOptions[5].type" -type "string" "scalar";
	setAttr ".stringOptions[6].name" -type "string" "importon trace depth";
	setAttr ".stringOptions[6].value" -type "string" "0";
	setAttr ".stringOptions[6].type" -type "string" "integer";
	setAttr ".stringOptions[7].name" -type "string" "importon traverse";
	setAttr ".stringOptions[7].value" -type "string" "true";
	setAttr ".stringOptions[7].type" -type "string" "boolean";
	setAttr ".stringOptions[8].name" -type "string" "shadowmap pixel samples";
	setAttr ".stringOptions[8].value" -type "string" "3";
	setAttr ".stringOptions[8].type" -type "string" "integer";
	setAttr ".stringOptions[9].name" -type "string" "ambient occlusion";
	setAttr ".stringOptions[9].value" -type "string" "false";
	setAttr ".stringOptions[9].type" -type "string" "boolean";
	setAttr ".stringOptions[10].name" -type "string" "ambient occlusion rays";
	setAttr ".stringOptions[10].value" -type "string" "256";
	setAttr ".stringOptions[10].type" -type "string" "integer";
	setAttr ".stringOptions[11].name" -type "string" "ambient occlusion cache";
	setAttr ".stringOptions[11].value" -type "string" "false";
	setAttr ".stringOptions[11].type" -type "string" "boolean";
	setAttr ".stringOptions[12].name" -type "string" "ambient occlusion cache density";
	setAttr ".stringOptions[12].value" -type "string" "1.0";
	setAttr ".stringOptions[12].type" -type "string" "scalar";
	setAttr ".stringOptions[13].name" -type "string" "ambient occlusion cache points";
	setAttr ".stringOptions[13].value" -type "string" "64";
	setAttr ".stringOptions[13].type" -type "string" "integer";
	setAttr ".stringOptions[14].name" -type "string" "irradiance particles";
	setAttr ".stringOptions[14].value" -type "string" "false";
	setAttr ".stringOptions[14].type" -type "string" "boolean";
	setAttr ".stringOptions[15].name" -type "string" "irradiance particles rays";
	setAttr ".stringOptions[15].value" -type "string" "256";
	setAttr ".stringOptions[15].type" -type "string" "integer";
	setAttr ".stringOptions[16].name" -type "string" "irradiance particles interpolate";
	setAttr ".stringOptions[16].value" -type "string" "1";
	setAttr ".stringOptions[16].type" -type "string" "integer";
	setAttr ".stringOptions[17].name" -type "string" "irradiance particles interppoints";
	setAttr ".stringOptions[17].value" -type "string" "64";
	setAttr ".stringOptions[17].type" -type "string" "integer";
	setAttr ".stringOptions[18].name" -type "string" "irradiance particles indirect passes";
	setAttr ".stringOptions[18].value" -type "string" "0";
	setAttr ".stringOptions[18].type" -type "string" "integer";
	setAttr ".stringOptions[19].name" -type "string" "irradiance particles scale";
	setAttr ".stringOptions[19].value" -type "string" "1.0";
	setAttr ".stringOptions[19].type" -type "string" "scalar";
	setAttr ".stringOptions[20].name" -type "string" "irradiance particles env";
	setAttr ".stringOptions[20].value" -type "string" "true";
	setAttr ".stringOptions[20].type" -type "string" "boolean";
	setAttr ".stringOptions[21].name" -type "string" "irradiance particles env rays";
	setAttr ".stringOptions[21].value" -type "string" "256";
	setAttr ".stringOptions[21].type" -type "string" "integer";
	setAttr ".stringOptions[22].name" -type "string" "irradiance particles env scale";
	setAttr ".stringOptions[22].value" -type "string" "1";
	setAttr ".stringOptions[22].type" -type "string" "integer";
	setAttr ".stringOptions[23].name" -type "string" "irradiance particles rebuild";
	setAttr ".stringOptions[23].value" -type "string" "true";
	setAttr ".stringOptions[23].type" -type "string" "boolean";
	setAttr ".stringOptions[24].name" -type "string" "irradiance particles file";
	setAttr ".stringOptions[24].value" -type "string" "";
	setAttr ".stringOptions[24].type" -type "string" "string";
	setAttr ".stringOptions[25].name" -type "string" "geom displace motion factor";
	setAttr ".stringOptions[25].value" -type "string" "1.0";
	setAttr ".stringOptions[25].type" -type "string" "scalar";
	setAttr ".stringOptions[26].name" -type "string" "contrast all buffers";
	setAttr ".stringOptions[26].value" -type "string" "true";
	setAttr ".stringOptions[26].type" -type "string" "boolean";
	setAttr ".stringOptions[27].name" -type "string" "finalgather normal tolerance";
	setAttr ".stringOptions[27].value" -type "string" "25.842";
	setAttr ".stringOptions[27].type" -type "string" "scalar";
createNode mentalrayFramebuffer -s -n "miDefaultFramebuffer";
select -ne :time1;
	setAttr -k on ".o" 1;
	setAttr ".unw" 1;
select -ne :renderPartition;
	setAttr -s 3 ".st";
select -ne :initialShadingGroup;
	setAttr -k on ".cch";
	setAttr -k on ".nds";
	setAttr -k on ".mwc";
	setAttr ".ro" yes;
select -ne :initialParticleSE;
	setAttr -k on ".cch";
	setAttr -k on ".nds";
	setAttr ".ro" yes;
select -ne :defaultShaderList1;
	setAttr -s 3 ".s";
select -ne :defaultTextureList1;
	setAttr -s 2 ".tx";
select -ne :postProcessList1;
	setAttr -s 2 ".p";
select -ne :renderGlobalsList1;
select -ne :defaultRenderGlobals;
	setAttr ".ren" -type "string" "mentalRay";
	setAttr -k on ".mbf";
select -ne :defaultResolution;
	setAttr ".pa" 1;
select -ne :hardwareRenderGlobals;
	setAttr ".ctrs" 256;
	setAttr ".btrs" 512;
select -ne :defaultHardwareRenderGlobals;
	setAttr ".fn" -type "string" "im";
	setAttr ".res" -type "string" "ntsc_4d 646 485 1.333";
connectAttr ":time1.o" "emitter1.ct";
connectAttr "particleShape1.ifl" "emitter1.full[0]";
connectAttr "particleShape1.tss" "emitter1.dt[0]";
connectAttr "particleShape1.inh" "emitter1.inh[0]";
connectAttr "particleShape1.stt" "emitter1.stt[0]";
connectAttr "particleShape1.sd[0]" "emitter1.sd[0]";
connectAttr ":time1.o" "particleShape1.cti";
connectAttr "emitter1.ot[0]" "particleShape1.npt[0]";
connectAttr "particleShape1.xo[2]" "particleShape1.rgbPP";
connectAttr "particleShape1.xo[0]" "particleShape1.radiusPP";
connectAttr ":time1.o" "particleShape1.tim";
connectAttr "gravityField1.of[0]" "particleShape1.ifc[0]";
connectAttr "geoConnector1.swg" "particleShape1.cge[0]";
connectAttr "geoConnector1.res" "particleShape1.crs[0]";
connectAttr "geoConnector1.fri" "particleShape1.cfr[0]";
connectAttr "geoConnector1.off" "particleShape1.cof[0]";
connectAttr "particleShape1.xo[1]" "particleShape1.vel";
connectAttr "particleShape1.id" "particleShape1.xi[0]";
connectAttr "particleShape1.fd" "gravityField1.ind[0]";
connectAttr "particleShape1.ppfd[0]" "gravityField1.ppda[0]";
connectAttr "attributeTransfer1.og" "pPlaneShape1.i";
connectAttr "polyPlane2.out" "pPlaneShape2.i";
connectAttr "boundingObject1.wm" "boundingObjectShape1.ipm";
connectAttr "particleShape1.wps" "boundingObjectShape1.ipp";
connectAttr "particleShape1.rgbPP" "boundingObjectShape1.iprgb";
connectAttr "group1.oc" "boundingObjectShape1.ipc";
connectAttr "particleShape1.radiusPP" "boundingObjectShape1.ipr";
connectAttr "boundingObject2.wm" "boundingObjectShape2.ipm";
relationship "link" ":lightLinker1" ":initialShadingGroup.message" ":defaultLightSet.message";
relationship "link" ":lightLinker1" ":initialParticleSE.message" ":defaultLightSet.message";
relationship "link" ":lightLinker1" "lambert2SG.message" ":defaultLightSet.message";
relationship "shadowLink" ":lightLinker1" ":initialShadingGroup.message" ":defaultLightSet.message";
relationship "shadowLink" ":lightLinker1" ":initialParticleSE.message" ":defaultLightSet.message";
relationship "shadowLink" ":lightLinker1" "lambert2SG.message" ":defaultLightSet.message";
connectAttr "layerManager.dli[0]" "defaultLayer.id";
connectAttr "renderLayerManager.rlmi[0]" "defaultRenderLayer.rlid";
connectAttr "polyPlane1.out" "attributeTransfer1.ig";
connectAttr "boundingObjectShape1.od" "attributeTransfer1.bos[7]";
connectAttr "boundingObjectShape1.opm" "attributeTransfer1.bos[7].bpm";
connectAttr "particleShape1.wps" "group1.ig";
connectAttr "boundingObjectShape2.od" "group1.bos[1]";
connectAttr "boundingObjectShape2.opm" "group1.bos[1].bpm";
connectAttr ":time1.o" "geoConnector1.ct";
connectAttr "pPlaneShape2.o" "geoConnector1.lge";
connectAttr "pPlaneShape2.wm" "geoConnector1.wm";
connectAttr "pPlaneShape2.msg" "geoConnector1.own";
connectAttr "mentalrayVertexColors1.oc" "lambert2.c";
connectAttr "lambert2.oc" "lambert2SG.ss";
connectAttr "pPlaneShape1.iog" "lambert2SG.dsm" -na;
connectAttr "lambert2SG.msg" "materialInfo1.sg";
connectAttr "lambert2.msg" "materialInfo1.m";
connectAttr "mentalrayVertexColors1.msg" "materialInfo1.t" -na;
connectAttr "pPlaneShape1.clst[0].clsn" "mentalrayVertexColors1.s[0]";
connectAttr ":mentalrayGlobals.msg" ":mentalrayItemsList.glb";
connectAttr ":miDefaultOptions.msg" ":mentalrayItemsList.opt" -na;
connectAttr ":miDefaultFramebuffer.msg" ":mentalrayItemsList.fb" -na;
connectAttr ":miDefaultOptions.msg" ":mentalrayGlobals.opt";
connectAttr ":miDefaultFramebuffer.msg" ":mentalrayGlobals.fb";
connectAttr "lambert2SG.pa" ":renderPartition.st" -na;
connectAttr "pPlaneShape2.iog" ":initialShadingGroup.dsm" -na;
connectAttr "particleShape1.iog" ":initialParticleSE.dsm" -na;
connectAttr "lambert2.msg" ":defaultShaderList1.s" -na;
connectAttr "ramp1.msg" ":defaultTextureList1.tx" -na;
connectAttr "mentalrayVertexColors1.msg" ":defaultTextureList1.tx" -na;
// End of attributeTransfer_particles_1.ma
