//Maya ASCII 2012 scene
//Name: hair_to_instancer.ma
//Last modified: Fri, May 13, 2011 10:27:36 PM
//Codeset: UTF-8
requires maya "2012";
requires "SOuP" "1.28 (May  8 2011)";
currentUnit -l centimeter -a degree -t film;
fileInfo "application" "maya";
fileInfo "product" "Maya 2012 Pre-Release";
fileInfo "version" "2012 x64";
fileInfo "cutIdentifier" "201102250015-795761";
fileInfo "osv" "Linux 2.6.35.12-88.fc14.x86_64 #1 SMP Thu Mar 31 21:21:57 UTC 2011 x86_64";
createNode transform -s -n "persp";
	setAttr ".v" no;
	setAttr ".t" -type "double3" -1.4753995150519639 1.6691527857385349 3.04159773185058 ;
	setAttr ".r" -type "double3" -24.938352729603771 -35.800000000000715 0 ;
createNode camera -s -n "perspShape" -p "persp";
	setAttr -k off ".v" no;
	setAttr ".fl" 34.999999999999993;
	setAttr ".coi" 3.9603033050295235;
	setAttr ".imn" -type "string" "persp";
	setAttr ".den" -type "string" "persp_depth";
	setAttr ".man" -type "string" "persp_mask";
	setAttr ".hc" -type "string" "viewSet -p %camera";
createNode transform -s -n "top";
	setAttr ".v" no;
	setAttr ".t" -type "double3" 0 100.1 0 ;
	setAttr ".r" -type "double3" -89.999999999999986 0 0 ;
createNode camera -s -n "topShape" -p "top";
	setAttr -k off ".v" no;
	setAttr ".rnd" no;
	setAttr ".coi" 100.1;
	setAttr ".ow" 30;
	setAttr ".imn" -type "string" "top";
	setAttr ".den" -type "string" "top_depth";
	setAttr ".man" -type "string" "top_mask";
	setAttr ".hc" -type "string" "viewSet -t %camera";
	setAttr ".o" yes;
createNode transform -s -n "front";
	setAttr ".v" no;
	setAttr ".t" -type "double3" 0 0 100.1 ;
createNode camera -s -n "frontShape" -p "front";
	setAttr -k off ".v" no;
	setAttr ".rnd" no;
	setAttr ".coi" 100.1;
	setAttr ".ow" 30;
	setAttr ".imn" -type "string" "front";
	setAttr ".den" -type "string" "front_depth";
	setAttr ".man" -type "string" "front_mask";
	setAttr ".hc" -type "string" "viewSet -f %camera";
	setAttr ".o" yes;
createNode transform -s -n "side";
	setAttr ".v" no;
	setAttr ".t" -type "double3" 100.1 0 0 ;
	setAttr ".r" -type "double3" 0 89.999999999999986 0 ;
createNode camera -s -n "sideShape" -p "side";
	setAttr -k off ".v" no;
	setAttr ".rnd" no;
	setAttr ".coi" 100.1;
	setAttr ".ow" 30;
	setAttr ".imn" -type "string" "side";
	setAttr ".den" -type "string" "side_depth";
	setAttr ".man" -type "string" "side_mask";
	setAttr ".hc" -type "string" "viewSet -s %camera";
	setAttr ".o" yes;
createNode transform -n "pSphere1";
createNode mesh -n "pSphereShape1" -p "pSphere1";
	setAttr -k off ".v";
	setAttr ".vir" yes;
	setAttr ".vif" yes;
	setAttr ".uvst[0].uvsn" -type "string" "map1";
	setAttr ".cuvs" -type "string" "map1";
	setAttr ".dcc" -type "string" "Ambient+Diffuse";
	setAttr ".covm[0]"  0 1 1;
	setAttr ".cdvm[0]"  0 1 1;
createNode transform -n "polySurface1";
	setAttr ".ove" yes;
	setAttr ".t" -type "double3" 1.1251634824394239 0 0 ;
createNode mesh -n "polySurfaceShape1" -p "polySurface1";
	setAttr -k off ".v";
	setAttr -s 4 ".iog[0].og";
	setAttr ".vir" yes;
	setAttr ".vif" yes;
	setAttr ".uvst[0].uvsn" -type "string" "map1";
	setAttr ".cuvs" -type "string" "map1";
	setAttr ".dcc" -type "string" "Ambient+Diffuse";
	setAttr ".covm[0]"  0 1 1;
	setAttr ".cdvm[0]"  0 1 1;
	setAttr -s 2 ".pt[199:200]" -type "float3"  -2.0692823e-08 7.4505806e-09 -7.4505806e-09 
		0 0 0;
createNode mesh -n "polySurfaceShape1Orig" -p "polySurface1";
	setAttr -k off ".v";
	setAttr ".io" yes;
	setAttr ".vir" yes;
	setAttr ".vif" yes;
	setAttr ".uvst[0].uvsn" -type "string" "map1";
	setAttr ".cuvs" -type "string" "map1";
	setAttr ".dcc" -type "string" "Ambient+Diffuse";
	setAttr ".covm[0]"  0 1 1;
	setAttr ".cdvm[0]"  0 1 1;
createNode transform -n "softMod1Handle";
	setAttr ".rp" -type "double3" 1.6251635419999999 3.7252902979999999e-09 0.5 ;
	setAttr ".sp" -type "double3" 1.6251635419999999 3.7252902979999999e-09 0.5 ;
	setAttr ".dla" yes;
createNode softModHandle -n "softMod1HandleShape" -p "softMod1Handle";
	setAttr ".ihi" 0;
	setAttr -k off ".v";
	setAttr ".or" -type "double3" 1.6251635419999999 3.7252902979999999e-09 0.5 ;
createNode lightLinker -s -n "lightLinker1";
	setAttr -s 3 ".lnk";
	setAttr -s 3 ".slnk";
createNode displayLayerManager -n "layerManager";
createNode displayLayer -n "defaultLayer";
createNode renderLayerManager -n "renderLayerManager";
createNode renderLayer -n "defaultRenderLayer";
	setAttr ".g" yes;
createNode mapToMesh -n "mapToMesh1";
createNode polySphere -n "polySphere1";
createNode hyperGraphInfo -n "nodeEditorPanel1Info";
createNode hyperView -n "hyperView1";
	setAttr ".vl" -type "double2" -1480.9588175063061 -930.23710456397589 ;
	setAttr ".vh" -type "double2" 227.54164087730717 359.54320570057661 ;
	setAttr ".dag" no;
createNode hyperLayout -n "hyperLayout1";
	setAttr ".ihi" 0;
	setAttr -s 25 ".hyp";
	setAttr ".hyp[0].x" -494.28570556640625;
	setAttr ".hyp[0].nvs" 1888;
	setAttr ".hyp[1].x" -1235.7142333984375;
	setAttr ".hyp[1].y" -205.71427917480469;
	setAttr ".hyp[1].nvs" 1888;
	setAttr ".hyp[2].x" -192.57627868652344;
	setAttr ".hyp[2].y" -334.60552978515625;
	setAttr ".hyp[2].nvs" 1888;
	setAttr ".hyp[3].x" -952.37353515625;
	setAttr ".hyp[3].y" -120.9815673828125;
	setAttr ".hyp[3].nvs" 1888;
	setAttr ".hyp[4].x" -657.1304931640625;
	setAttr ".hyp[4].y" -119.47395324707031;
	setAttr ".hyp[4].nvs" 1888;
	setAttr ".hyp[5].x" -247.14285278320312;
	setAttr ".hyp[5].y" -102.85713958740234;
	setAttr ".hyp[5].nvs" 1888;
	setAttr ".hyp[6].x" -446.62356567382812;
	setAttr ".hyp[6].y" -223.39033508300781;
	setAttr ".hyp[6].nvs" 1888;
	setAttr ".hyp[7].x" -620.59588623046875;
	setAttr ".hyp[7].y" -701.96173095703125;
	setAttr ".hyp[7].nvs" 1888;
	setAttr ".hyp[8].x" -620.59588623046875;
	setAttr ".hyp[8].y" -414.81890869140625;
	setAttr ".hyp[8].nvs" 1888;
	setAttr ".hyp[9].x" -812.02447509765625;
	setAttr ".hyp[9].y" -668.17681884765625;
	setAttr ".hyp[9].nvs" 1888;
	setAttr ".hyp[10].x" -812.02447509765625;
	setAttr ".hyp[10].y" -575.31964111328125;
	setAttr ".hyp[10].nvs" 1888;
	setAttr ".hyp[11].x" -620.59588623046875;
	setAttr ".hyp[11].y" -319.1046142578125;
	setAttr ".hyp[11].nvs" 1888;
	setAttr ".hyp[12].x" -812.02447509765625;
	setAttr ".hyp[12].y" -482.4625244140625;
	setAttr ".hyp[12].nvs" 1888;
	setAttr ".hyp[13].x" -812.02447509765625;
	setAttr ".hyp[13].y" -853.89105224609375;
	setAttr ".hyp[13].nvs" 1888;
	setAttr ".hyp[14].x" -812.02447509765625;
	setAttr ".hyp[14].y" -761.033935546875;
	setAttr ".hyp[14].nvs" 1888;
	setAttr ".hyp[15].x" -620.59588623046875;
	setAttr ".hyp[15].y" -510.53317260742188;
	setAttr ".hyp[15].nvs" 1888;
	setAttr ".hyp[16].x" -620.59588623046875;
	setAttr ".hyp[16].y" -606.24749755859375;
	setAttr ".hyp[16].nvs" 1888;
	setAttr ".hyp[17].x" -620.59588623046875;
	setAttr ".hyp[17].y" -797.676025390625;
	setAttr ".hyp[17].nvs" 1888;
	setAttr ".hyp[18].x" -812.02447509765625;
	setAttr ".hyp[18].y" -296.74822998046875;
	setAttr ".hyp[18].nvs" 1888;
	setAttr ".hyp[19].x" -812.02447509765625;
	setAttr ".hyp[19].y" -26.616813659667969;
	setAttr ".hyp[19].nvs" 1888;
	setAttr ".hyp[20].x" -812.02447509765625;
	setAttr ".hyp[20].y" -389.60537719726562;
	setAttr ".hyp[20].nvs" 1888;
	setAttr ".hyp[21].x" -812.02447509765625;
	setAttr ".hyp[21].y" -389.60537719726562;
	setAttr ".hyp[21].nvs" 1888;
	setAttr ".hyp[22].x" -812.02447509765625;
	setAttr ".hyp[22].y" -296.74822998046875;
	setAttr ".hyp[22].nvs" 1888;
	setAttr ".hyp[23].x" -812.02447509765625;
	setAttr ".hyp[23].y" -26.616813659667969;
	setAttr ".hyp[23].nvs" 1888;
	setAttr ".hyp[24].x" -812.02447509765625;
	setAttr ".hyp[24].y" 66.240325927734375;
	setAttr ".hyp[24].nvs" 1888;
	setAttr ".anf" yes;
createNode script -n "uiConfigurationScriptNode";
	setAttr ".b" -type "string" (
		"// Maya Mel UI Configuration File.\n//\n//  This script is machine generated.  Edit at your own risk.\n//\n//\n\nglobal string $gMainPane;\nif (`paneLayout -exists $gMainPane`) {\n\n\tglobal int $gUseScenePanelConfig;\n\tint    $useSceneConfig = $gUseScenePanelConfig;\n\tint    $menusOkayInPanels = `optionVar -q allowMenusInPanels`;\tint    $nVisPanes = `paneLayout -q -nvp $gMainPane`;\n\tint    $nPanes = 0;\n\tstring $editorName;\n\tstring $panelName;\n\tstring $itemFilterName;\n\tstring $panelConfig;\n\n\t//\n\t//  get current state of the UI\n\t//\n\tsceneUIReplacement -update $gMainPane;\n\n\t$panelName = `sceneUIReplacement -getNextPanel \"modelPanel\" (localizedPanelLabel(\"Top View\")) `;\n\tif (\"\" == $panelName) {\n\t\tif ($useSceneConfig) {\n\t\t\t$panelName = `modelPanel -unParent -l (localizedPanelLabel(\"Top View\")) -mbv $menusOkayInPanels `;\n\t\t\t$editorName = $panelName;\n            modelEditor -e \n                -camera \"persp\" \n                -useInteractiveMode 0\n                -displayLights \"default\" \n                -displayAppearance \"smoothShaded\" \n"
		+ "                -activeOnly 0\n                -ignorePanZoom 0\n                -wireframeOnShaded 1\n                -headsUpDisplay 1\n                -selectionHiliteDisplay 1\n                -useDefaultMaterial 0\n                -bufferMode \"double\" \n                -twoSidedLighting 1\n                -backfaceCulling 0\n                -xray 0\n                -jointXray 0\n                -activeComponentsXray 0\n                -displayTextures 1\n                -smoothWireframe 0\n                -lineWidth 1\n                -textureAnisotropic 0\n                -textureHilight 1\n                -textureSampling 2\n                -textureDisplay \"modulate\" \n                -textureMaxSize 8192\n                -fogging 0\n                -fogSource \"fragment\" \n                -fogMode \"linear\" \n                -fogStart 0\n                -fogEnd 100\n                -fogDensity 0.1\n                -fogColor 0.5 0.5 0.5 1 \n                -maxConstantTransparency 1\n                -rendererName \"base_OpenGL_Renderer\" \n"
		+ "                -objectFilterShowInHUD 1\n                -isFiltered 0\n                -colorResolution 256 256 \n                -bumpResolution 512 512 \n                -textureCompression 0\n                -transparencyAlgorithm \"frontAndBackCull\" \n                -transpInShadows 0\n                -cullingOverride \"none\" \n                -lowQualityLighting 0\n                -maximumNumHardwareLights 1\n                -occlusionCulling 0\n                -shadingModel 0\n                -useBaseRenderer 0\n                -useReducedRenderer 0\n                -smallObjectCulling 0\n                -smallObjectThreshold -1 \n                -interactiveDisableShadows 0\n                -interactiveBackFaceCull 0\n                -sortTransparent 1\n                -nurbsCurves 1\n                -nurbsSurfaces 1\n                -polymeshes 1\n                -subdivSurfaces 1\n                -planes 1\n                -lights 1\n                -cameras 1\n                -controlVertices 1\n                -hulls 1\n                -grid 1\n"
		+ "                -imagePlane 1\n                -joints 1\n                -ikHandles 1\n                -deformers 1\n                -dynamics 1\n                -fluids 1\n                -hairSystems 1\n                -follicles 1\n                -nCloths 1\n                -nParticles 1\n                -nRigids 1\n                -dynamicConstraints 1\n                -locators 1\n                -manipulators 1\n                -dimensions 1\n                -handles 1\n                -pivots 1\n                -textures 1\n                -strokes 1\n                -motionTrails 1\n                -shadows 0\n                $editorName;\nmodelEditor -e -viewSelected 0 $editorName;\n\t\t}\n\t} else {\n\t\t$label = `panel -q -label $panelName`;\n\t\tmodelPanel -edit -l (localizedPanelLabel(\"Top View\")) -mbv $menusOkayInPanels  $panelName;\n\t\t$editorName = $panelName;\n        modelEditor -e \n            -camera \"persp\" \n            -useInteractiveMode 0\n            -displayLights \"default\" \n            -displayAppearance \"smoothShaded\" \n"
		+ "            -activeOnly 0\n            -ignorePanZoom 0\n            -wireframeOnShaded 1\n            -headsUpDisplay 1\n            -selectionHiliteDisplay 1\n            -useDefaultMaterial 0\n            -bufferMode \"double\" \n            -twoSidedLighting 1\n            -backfaceCulling 0\n            -xray 0\n            -jointXray 0\n            -activeComponentsXray 0\n            -displayTextures 1\n            -smoothWireframe 0\n            -lineWidth 1\n            -textureAnisotropic 0\n            -textureHilight 1\n            -textureSampling 2\n            -textureDisplay \"modulate\" \n            -textureMaxSize 8192\n            -fogging 0\n            -fogSource \"fragment\" \n            -fogMode \"linear\" \n            -fogStart 0\n            -fogEnd 100\n            -fogDensity 0.1\n            -fogColor 0.5 0.5 0.5 1 \n            -maxConstantTransparency 1\n            -rendererName \"base_OpenGL_Renderer\" \n            -objectFilterShowInHUD 1\n            -isFiltered 0\n            -colorResolution 256 256 \n            -bumpResolution 512 512 \n"
		+ "            -textureCompression 0\n            -transparencyAlgorithm \"frontAndBackCull\" \n            -transpInShadows 0\n            -cullingOverride \"none\" \n            -lowQualityLighting 0\n            -maximumNumHardwareLights 1\n            -occlusionCulling 0\n            -shadingModel 0\n            -useBaseRenderer 0\n            -useReducedRenderer 0\n            -smallObjectCulling 0\n            -smallObjectThreshold -1 \n            -interactiveDisableShadows 0\n            -interactiveBackFaceCull 0\n            -sortTransparent 1\n            -nurbsCurves 1\n            -nurbsSurfaces 1\n            -polymeshes 1\n            -subdivSurfaces 1\n            -planes 1\n            -lights 1\n            -cameras 1\n            -controlVertices 1\n            -hulls 1\n            -grid 1\n            -imagePlane 1\n            -joints 1\n            -ikHandles 1\n            -deformers 1\n            -dynamics 1\n            -fluids 1\n            -hairSystems 1\n            -follicles 1\n            -nCloths 1\n            -nParticles 1\n"
		+ "            -nRigids 1\n            -dynamicConstraints 1\n            -locators 1\n            -manipulators 1\n            -dimensions 1\n            -handles 1\n            -pivots 1\n            -textures 1\n            -strokes 1\n            -motionTrails 1\n            -shadows 0\n            $editorName;\nmodelEditor -e -viewSelected 0 $editorName;\n\t\tif (!$useSceneConfig) {\n\t\t\tpanel -e -l $label $panelName;\n\t\t}\n\t}\n\n\n\t$panelName = `sceneUIReplacement -getNextPanel \"modelPanel\" (localizedPanelLabel(\"Side View\")) `;\n\tif (\"\" == $panelName) {\n\t\tif ($useSceneConfig) {\n\t\t\t$panelName = `modelPanel -unParent -l (localizedPanelLabel(\"Side View\")) -mbv $menusOkayInPanels `;\n\t\t\t$editorName = $panelName;\n            modelEditor -e \n                -camera \"side\" \n                -useInteractiveMode 0\n                -displayLights \"default\" \n                -displayAppearance \"wireframe\" \n                -activeOnly 0\n                -ignorePanZoom 0\n                -wireframeOnShaded 0\n                -headsUpDisplay 1\n                -selectionHiliteDisplay 1\n"
		+ "                -useDefaultMaterial 0\n                -bufferMode \"double\" \n                -twoSidedLighting 1\n                -backfaceCulling 0\n                -xray 0\n                -jointXray 0\n                -activeComponentsXray 0\n                -displayTextures 0\n                -smoothWireframe 0\n                -lineWidth 1\n                -textureAnisotropic 0\n                -textureHilight 1\n                -textureSampling 2\n                -textureDisplay \"modulate\" \n                -textureMaxSize 8192\n                -fogging 0\n                -fogSource \"fragment\" \n                -fogMode \"linear\" \n                -fogStart 0\n                -fogEnd 100\n                -fogDensity 0.1\n                -fogColor 0.5 0.5 0.5 1 \n                -maxConstantTransparency 1\n                -rendererName \"base_OpenGL_Renderer\" \n                -objectFilterShowInHUD 1\n                -isFiltered 0\n                -colorResolution 256 256 \n                -bumpResolution 512 512 \n                -textureCompression 0\n"
		+ "                -transparencyAlgorithm \"frontAndBackCull\" \n                -transpInShadows 0\n                -cullingOverride \"none\" \n                -lowQualityLighting 0\n                -maximumNumHardwareLights 1\n                -occlusionCulling 0\n                -shadingModel 0\n                -useBaseRenderer 0\n                -useReducedRenderer 0\n                -smallObjectCulling 0\n                -smallObjectThreshold -1 \n                -interactiveDisableShadows 0\n                -interactiveBackFaceCull 0\n                -sortTransparent 1\n                -nurbsCurves 1\n                -nurbsSurfaces 1\n                -polymeshes 1\n                -subdivSurfaces 1\n                -planes 1\n                -lights 1\n                -cameras 1\n                -controlVertices 1\n                -hulls 1\n                -grid 1\n                -imagePlane 1\n                -joints 1\n                -ikHandles 1\n                -deformers 1\n                -dynamics 1\n                -fluids 1\n                -hairSystems 1\n"
		+ "                -follicles 1\n                -nCloths 1\n                -nParticles 1\n                -nRigids 1\n                -dynamicConstraints 1\n                -locators 1\n                -manipulators 1\n                -dimensions 1\n                -handles 1\n                -pivots 1\n                -textures 1\n                -strokes 1\n                -motionTrails 1\n                -shadows 0\n                $editorName;\nmodelEditor -e -viewSelected 0 $editorName;\n\t\t}\n\t} else {\n\t\t$label = `panel -q -label $panelName`;\n\t\tmodelPanel -edit -l (localizedPanelLabel(\"Side View\")) -mbv $menusOkayInPanels  $panelName;\n\t\t$editorName = $panelName;\n        modelEditor -e \n            -camera \"side\" \n            -useInteractiveMode 0\n            -displayLights \"default\" \n            -displayAppearance \"wireframe\" \n            -activeOnly 0\n            -ignorePanZoom 0\n            -wireframeOnShaded 0\n            -headsUpDisplay 1\n            -selectionHiliteDisplay 1\n            -useDefaultMaterial 0\n            -bufferMode \"double\" \n"
		+ "            -twoSidedLighting 1\n            -backfaceCulling 0\n            -xray 0\n            -jointXray 0\n            -activeComponentsXray 0\n            -displayTextures 0\n            -smoothWireframe 0\n            -lineWidth 1\n            -textureAnisotropic 0\n            -textureHilight 1\n            -textureSampling 2\n            -textureDisplay \"modulate\" \n            -textureMaxSize 8192\n            -fogging 0\n            -fogSource \"fragment\" \n            -fogMode \"linear\" \n            -fogStart 0\n            -fogEnd 100\n            -fogDensity 0.1\n            -fogColor 0.5 0.5 0.5 1 \n            -maxConstantTransparency 1\n            -rendererName \"base_OpenGL_Renderer\" \n            -objectFilterShowInHUD 1\n            -isFiltered 0\n            -colorResolution 256 256 \n            -bumpResolution 512 512 \n            -textureCompression 0\n            -transparencyAlgorithm \"frontAndBackCull\" \n            -transpInShadows 0\n            -cullingOverride \"none\" \n            -lowQualityLighting 0\n            -maximumNumHardwareLights 1\n"
		+ "            -occlusionCulling 0\n            -shadingModel 0\n            -useBaseRenderer 0\n            -useReducedRenderer 0\n            -smallObjectCulling 0\n            -smallObjectThreshold -1 \n            -interactiveDisableShadows 0\n            -interactiveBackFaceCull 0\n            -sortTransparent 1\n            -nurbsCurves 1\n            -nurbsSurfaces 1\n            -polymeshes 1\n            -subdivSurfaces 1\n            -planes 1\n            -lights 1\n            -cameras 1\n            -controlVertices 1\n            -hulls 1\n            -grid 1\n            -imagePlane 1\n            -joints 1\n            -ikHandles 1\n            -deformers 1\n            -dynamics 1\n            -fluids 1\n            -hairSystems 1\n            -follicles 1\n            -nCloths 1\n            -nParticles 1\n            -nRigids 1\n            -dynamicConstraints 1\n            -locators 1\n            -manipulators 1\n            -dimensions 1\n            -handles 1\n            -pivots 1\n            -textures 1\n            -strokes 1\n"
		+ "            -motionTrails 1\n            -shadows 0\n            $editorName;\nmodelEditor -e -viewSelected 0 $editorName;\n\t\tif (!$useSceneConfig) {\n\t\t\tpanel -e -l $label $panelName;\n\t\t}\n\t}\n\n\n\t$panelName = `sceneUIReplacement -getNextPanel \"modelPanel\" (localizedPanelLabel(\"Front View\")) `;\n\tif (\"\" == $panelName) {\n\t\tif ($useSceneConfig) {\n\t\t\t$panelName = `modelPanel -unParent -l (localizedPanelLabel(\"Front View\")) -mbv $menusOkayInPanels `;\n\t\t\t$editorName = $panelName;\n            modelEditor -e \n                -camera \"persp\" \n                -useInteractiveMode 0\n                -displayLights \"default\" \n                -displayAppearance \"wireframe\" \n                -activeOnly 0\n                -ignorePanZoom 0\n                -wireframeOnShaded 0\n                -headsUpDisplay 1\n                -selectionHiliteDisplay 1\n                -useDefaultMaterial 0\n                -bufferMode \"double\" \n                -twoSidedLighting 1\n                -backfaceCulling 0\n                -xray 0\n                -jointXray 0\n"
		+ "                -activeComponentsXray 0\n                -displayTextures 0\n                -smoothWireframe 0\n                -lineWidth 1\n                -textureAnisotropic 0\n                -textureHilight 1\n                -textureSampling 2\n                -textureDisplay \"modulate\" \n                -textureMaxSize 8192\n                -fogging 0\n                -fogSource \"fragment\" \n                -fogMode \"linear\" \n                -fogStart 0\n                -fogEnd 100\n                -fogDensity 0.1\n                -fogColor 0.5 0.5 0.5 1 \n                -maxConstantTransparency 1\n                -rendererName \"base_OpenGL_Renderer\" \n                -objectFilterShowInHUD 1\n                -isFiltered 0\n                -colorResolution 256 256 \n                -bumpResolution 512 512 \n                -textureCompression 0\n                -transparencyAlgorithm \"frontAndBackCull\" \n                -transpInShadows 0\n                -cullingOverride \"none\" \n                -lowQualityLighting 0\n                -maximumNumHardwareLights 1\n"
		+ "                -occlusionCulling 0\n                -shadingModel 0\n                -useBaseRenderer 0\n                -useReducedRenderer 0\n                -smallObjectCulling 0\n                -smallObjectThreshold -1 \n                -interactiveDisableShadows 0\n                -interactiveBackFaceCull 0\n                -sortTransparent 1\n                -nurbsCurves 1\n                -nurbsSurfaces 1\n                -polymeshes 1\n                -subdivSurfaces 1\n                -planes 1\n                -lights 1\n                -cameras 1\n                -controlVertices 1\n                -hulls 1\n                -grid 1\n                -imagePlane 1\n                -joints 1\n                -ikHandles 1\n                -deformers 1\n                -dynamics 1\n                -fluids 1\n                -hairSystems 1\n                -follicles 1\n                -nCloths 1\n                -nParticles 1\n                -nRigids 1\n                -dynamicConstraints 1\n                -locators 1\n                -manipulators 1\n"
		+ "                -dimensions 1\n                -handles 1\n                -pivots 1\n                -textures 1\n                -strokes 1\n                -motionTrails 1\n                -shadows 0\n                $editorName;\nmodelEditor -e -viewSelected 0 $editorName;\n\t\t}\n\t} else {\n\t\t$label = `panel -q -label $panelName`;\n\t\tmodelPanel -edit -l (localizedPanelLabel(\"Front View\")) -mbv $menusOkayInPanels  $panelName;\n\t\t$editorName = $panelName;\n        modelEditor -e \n            -camera \"persp\" \n            -useInteractiveMode 0\n            -displayLights \"default\" \n            -displayAppearance \"wireframe\" \n            -activeOnly 0\n            -ignorePanZoom 0\n            -wireframeOnShaded 0\n            -headsUpDisplay 1\n            -selectionHiliteDisplay 1\n            -useDefaultMaterial 0\n            -bufferMode \"double\" \n            -twoSidedLighting 1\n            -backfaceCulling 0\n            -xray 0\n            -jointXray 0\n            -activeComponentsXray 0\n            -displayTextures 0\n            -smoothWireframe 0\n"
		+ "            -lineWidth 1\n            -textureAnisotropic 0\n            -textureHilight 1\n            -textureSampling 2\n            -textureDisplay \"modulate\" \n            -textureMaxSize 8192\n            -fogging 0\n            -fogSource \"fragment\" \n            -fogMode \"linear\" \n            -fogStart 0\n            -fogEnd 100\n            -fogDensity 0.1\n            -fogColor 0.5 0.5 0.5 1 \n            -maxConstantTransparency 1\n            -rendererName \"base_OpenGL_Renderer\" \n            -objectFilterShowInHUD 1\n            -isFiltered 0\n            -colorResolution 256 256 \n            -bumpResolution 512 512 \n            -textureCompression 0\n            -transparencyAlgorithm \"frontAndBackCull\" \n            -transpInShadows 0\n            -cullingOverride \"none\" \n            -lowQualityLighting 0\n            -maximumNumHardwareLights 1\n            -occlusionCulling 0\n            -shadingModel 0\n            -useBaseRenderer 0\n            -useReducedRenderer 0\n            -smallObjectCulling 0\n            -smallObjectThreshold -1 \n"
		+ "            -interactiveDisableShadows 0\n            -interactiveBackFaceCull 0\n            -sortTransparent 1\n            -nurbsCurves 1\n            -nurbsSurfaces 1\n            -polymeshes 1\n            -subdivSurfaces 1\n            -planes 1\n            -lights 1\n            -cameras 1\n            -controlVertices 1\n            -hulls 1\n            -grid 1\n            -imagePlane 1\n            -joints 1\n            -ikHandles 1\n            -deformers 1\n            -dynamics 1\n            -fluids 1\n            -hairSystems 1\n            -follicles 1\n            -nCloths 1\n            -nParticles 1\n            -nRigids 1\n            -dynamicConstraints 1\n            -locators 1\n            -manipulators 1\n            -dimensions 1\n            -handles 1\n            -pivots 1\n            -textures 1\n            -strokes 1\n            -motionTrails 1\n            -shadows 0\n            $editorName;\nmodelEditor -e -viewSelected 0 $editorName;\n\t\tif (!$useSceneConfig) {\n\t\t\tpanel -e -l $label $panelName;\n\t\t}\n\t}\n\n\n\t$panelName = `sceneUIReplacement -getNextPanel \"modelPanel\" (localizedPanelLabel(\"Persp View\")) `;\n"
		+ "\tif (\"\" == $panelName) {\n\t\tif ($useSceneConfig) {\n\t\t\t$panelName = `modelPanel -unParent -l (localizedPanelLabel(\"Persp View\")) -mbv $menusOkayInPanels `;\n\t\t\t$editorName = $panelName;\n            modelEditor -e \n                -camera \"persp\" \n                -useInteractiveMode 0\n                -displayLights \"default\" \n                -displayAppearance \"wireframe\" \n                -activeOnly 0\n                -ignorePanZoom 0\n                -wireframeOnShaded 0\n                -headsUpDisplay 1\n                -selectionHiliteDisplay 1\n                -useDefaultMaterial 0\n                -bufferMode \"double\" \n                -twoSidedLighting 1\n                -backfaceCulling 0\n                -xray 0\n                -jointXray 0\n                -activeComponentsXray 0\n                -displayTextures 0\n                -smoothWireframe 0\n                -lineWidth 1\n                -textureAnisotropic 0\n                -textureHilight 1\n                -textureSampling 2\n                -textureDisplay \"modulate\" \n"
		+ "                -textureMaxSize 8192\n                -fogging 0\n                -fogSource \"fragment\" \n                -fogMode \"linear\" \n                -fogStart 0\n                -fogEnd 100\n                -fogDensity 0.1\n                -fogColor 0.5 0.5 0.5 1 \n                -maxConstantTransparency 1\n                -rendererName \"base_OpenGL_Renderer\" \n                -objectFilterShowInHUD 1\n                -isFiltered 0\n                -colorResolution 256 256 \n                -bumpResolution 512 512 \n                -textureCompression 0\n                -transparencyAlgorithm \"frontAndBackCull\" \n                -transpInShadows 0\n                -cullingOverride \"none\" \n                -lowQualityLighting 0\n                -maximumNumHardwareLights 1\n                -occlusionCulling 0\n                -shadingModel 0\n                -useBaseRenderer 0\n                -useReducedRenderer 0\n                -smallObjectCulling 0\n                -smallObjectThreshold -1 \n                -interactiveDisableShadows 0\n"
		+ "                -interactiveBackFaceCull 0\n                -sortTransparent 1\n                -nurbsCurves 1\n                -nurbsSurfaces 1\n                -polymeshes 1\n                -subdivSurfaces 1\n                -planes 1\n                -lights 1\n                -cameras 1\n                -controlVertices 1\n                -hulls 1\n                -grid 1\n                -imagePlane 1\n                -joints 1\n                -ikHandles 1\n                -deformers 1\n                -dynamics 1\n                -fluids 1\n                -hairSystems 1\n                -follicles 1\n                -nCloths 1\n                -nParticles 1\n                -nRigids 1\n                -dynamicConstraints 1\n                -locators 1\n                -manipulators 1\n                -dimensions 1\n                -handles 1\n                -pivots 1\n                -textures 1\n                -strokes 1\n                -motionTrails 1\n                -shadows 0\n                $editorName;\nmodelEditor -e -viewSelected 0 $editorName;\n"
		+ "\t\t}\n\t} else {\n\t\t$label = `panel -q -label $panelName`;\n\t\tmodelPanel -edit -l (localizedPanelLabel(\"Persp View\")) -mbv $menusOkayInPanels  $panelName;\n\t\t$editorName = $panelName;\n        modelEditor -e \n            -camera \"persp\" \n            -useInteractiveMode 0\n            -displayLights \"default\" \n            -displayAppearance \"wireframe\" \n            -activeOnly 0\n            -ignorePanZoom 0\n            -wireframeOnShaded 0\n            -headsUpDisplay 1\n            -selectionHiliteDisplay 1\n            -useDefaultMaterial 0\n            -bufferMode \"double\" \n            -twoSidedLighting 1\n            -backfaceCulling 0\n            -xray 0\n            -jointXray 0\n            -activeComponentsXray 0\n            -displayTextures 0\n            -smoothWireframe 0\n            -lineWidth 1\n            -textureAnisotropic 0\n            -textureHilight 1\n            -textureSampling 2\n            -textureDisplay \"modulate\" \n            -textureMaxSize 8192\n            -fogging 0\n            -fogSource \"fragment\" \n"
		+ "            -fogMode \"linear\" \n            -fogStart 0\n            -fogEnd 100\n            -fogDensity 0.1\n            -fogColor 0.5 0.5 0.5 1 \n            -maxConstantTransparency 1\n            -rendererName \"base_OpenGL_Renderer\" \n            -objectFilterShowInHUD 1\n            -isFiltered 0\n            -colorResolution 256 256 \n            -bumpResolution 512 512 \n            -textureCompression 0\n            -transparencyAlgorithm \"frontAndBackCull\" \n            -transpInShadows 0\n            -cullingOverride \"none\" \n            -lowQualityLighting 0\n            -maximumNumHardwareLights 1\n            -occlusionCulling 0\n            -shadingModel 0\n            -useBaseRenderer 0\n            -useReducedRenderer 0\n            -smallObjectCulling 0\n            -smallObjectThreshold -1 \n            -interactiveDisableShadows 0\n            -interactiveBackFaceCull 0\n            -sortTransparent 1\n            -nurbsCurves 1\n            -nurbsSurfaces 1\n            -polymeshes 1\n            -subdivSurfaces 1\n            -planes 1\n"
		+ "            -lights 1\n            -cameras 1\n            -controlVertices 1\n            -hulls 1\n            -grid 1\n            -imagePlane 1\n            -joints 1\n            -ikHandles 1\n            -deformers 1\n            -dynamics 1\n            -fluids 1\n            -hairSystems 1\n            -follicles 1\n            -nCloths 1\n            -nParticles 1\n            -nRigids 1\n            -dynamicConstraints 1\n            -locators 1\n            -manipulators 1\n            -dimensions 1\n            -handles 1\n            -pivots 1\n            -textures 1\n            -strokes 1\n            -motionTrails 1\n            -shadows 0\n            $editorName;\nmodelEditor -e -viewSelected 0 $editorName;\n\t\tif (!$useSceneConfig) {\n\t\t\tpanel -e -l $label $panelName;\n\t\t}\n\t}\n\n\n\t$panelName = `sceneUIReplacement -getNextPanel \"outlinerPanel\" (localizedPanelLabel(\"Outliner\")) `;\n\tif (\"\" == $panelName) {\n\t\tif ($useSceneConfig) {\n\t\t\t$panelName = `outlinerPanel -unParent -l (localizedPanelLabel(\"Outliner\")) -mbv $menusOkayInPanels `;\n"
		+ "\t\t\t$editorName = $panelName;\n            outlinerEditor -e \n                -docTag \"isolOutln_fromSeln\" \n                -showShapes 1\n                -showRepresentationNodes 0\n                -showReferenceNodes 1\n                -showAttributes 0\n                -showConnected 0\n                -showAnimCurvesOnly 0\n                -showMuteInfo 0\n                -organizeByLayer 1\n                -showAnimLayerWeight 1\n                -autoExpandLayers 1\n                -autoExpand 0\n                -showDagOnly 1\n                -showAssets 1\n                -showContainedOnly 1\n                -showPublishedAsConnected 0\n                -showContainerContents 1\n                -ignoreDagHierarchy 0\n                -expandConnections 0\n                -showUpstreamCurves 1\n                -showUnitlessCurves 1\n                -showCompounds 1\n                -showLeafs 1\n                -showNumericAttrsOnly 0\n                -highlightActive 1\n                -autoSelectNewObjects 0\n                -doNotSelectNewObjects 0\n"
		+ "                -dropIsParent 1\n                -transmitFilters 0\n                -setFilter \"defaultSetFilter\" \n                -showSetMembers 1\n                -allowMultiSelection 1\n                -alwaysToggleSelect 0\n                -directSelect 0\n                -displayMode \"DAG\" \n                -expandObjects 0\n                -setsIgnoreFilters 1\n                -containersIgnoreFilters 0\n                -editAttrName 0\n                -showAttrValues 0\n                -highlightSecondary 0\n                -showUVAttrsOnly 0\n                -showTextureNodesOnly 0\n                -attrAlphaOrder \"default\" \n                -animLayerFilterOptions \"allAffecting\" \n                -sortOrder \"none\" \n                -longNames 0\n                -niceNames 1\n                -showNamespace 1\n                -showPinIcons 0\n                -mapMotionTrails 0\n                $editorName;\n\t\t}\n\t} else {\n\t\t$label = `panel -q -label $panelName`;\n\t\toutlinerPanel -edit -l (localizedPanelLabel(\"Outliner\")) -mbv $menusOkayInPanels  $panelName;\n"
		+ "\t\t$editorName = $panelName;\n        outlinerEditor -e \n            -docTag \"isolOutln_fromSeln\" \n            -showShapes 1\n            -showRepresentationNodes 0\n            -showReferenceNodes 1\n            -showAttributes 0\n            -showConnected 0\n            -showAnimCurvesOnly 0\n            -showMuteInfo 0\n            -organizeByLayer 1\n            -showAnimLayerWeight 1\n            -autoExpandLayers 1\n            -autoExpand 0\n            -showDagOnly 1\n            -showAssets 1\n            -showContainedOnly 1\n            -showPublishedAsConnected 0\n            -showContainerContents 1\n            -ignoreDagHierarchy 0\n            -expandConnections 0\n            -showUpstreamCurves 1\n            -showUnitlessCurves 1\n            -showCompounds 1\n            -showLeafs 1\n            -showNumericAttrsOnly 0\n            -highlightActive 1\n            -autoSelectNewObjects 0\n            -doNotSelectNewObjects 0\n            -dropIsParent 1\n            -transmitFilters 0\n            -setFilter \"defaultSetFilter\" \n"
		+ "            -showSetMembers 1\n            -allowMultiSelection 1\n            -alwaysToggleSelect 0\n            -directSelect 0\n            -displayMode \"DAG\" \n            -expandObjects 0\n            -setsIgnoreFilters 1\n            -containersIgnoreFilters 0\n            -editAttrName 0\n            -showAttrValues 0\n            -highlightSecondary 0\n            -showUVAttrsOnly 0\n            -showTextureNodesOnly 0\n            -attrAlphaOrder \"default\" \n            -animLayerFilterOptions \"allAffecting\" \n            -sortOrder \"none\" \n            -longNames 0\n            -niceNames 1\n            -showNamespace 1\n            -showPinIcons 0\n            -mapMotionTrails 0\n            $editorName;\n\t\tif (!$useSceneConfig) {\n\t\t\tpanel -e -l $label $panelName;\n\t\t}\n\t}\n\n\n\t$panelName = `sceneUIReplacement -getNextScriptedPanel \"graphEditor\" (localizedPanelLabel(\"Graph Editor\")) `;\n\tif (\"\" == $panelName) {\n\t\tif ($useSceneConfig) {\n\t\t\t$panelName = `scriptedPanel -unParent  -type \"graphEditor\" -l (localizedPanelLabel(\"Graph Editor\")) -mbv $menusOkayInPanels `;\n"
		+ "\t\t\t$editorName = ($panelName+\"OutlineEd\");\n            outlinerEditor -e \n                -showShapes 1\n                -showRepresentationNodes 0\n                -showReferenceNodes 0\n                -showAttributes 1\n                -showConnected 1\n                -showAnimCurvesOnly 1\n                -showMuteInfo 0\n                -organizeByLayer 1\n                -showAnimLayerWeight 1\n                -autoExpandLayers 1\n                -autoExpand 1\n                -showDagOnly 0\n                -showAssets 1\n                -showContainedOnly 0\n                -showPublishedAsConnected 0\n                -showContainerContents 0\n                -ignoreDagHierarchy 0\n                -expandConnections 1\n                -showUpstreamCurves 1\n                -showUnitlessCurves 1\n                -showCompounds 0\n                -showLeafs 1\n                -showNumericAttrsOnly 1\n                -highlightActive 0\n                -autoSelectNewObjects 1\n                -doNotSelectNewObjects 0\n                -dropIsParent 1\n"
		+ "                -transmitFilters 1\n                -setFilter \"0\" \n                -showSetMembers 0\n                -allowMultiSelection 1\n                -alwaysToggleSelect 0\n                -directSelect 0\n                -displayMode \"DAG\" \n                -expandObjects 0\n                -setsIgnoreFilters 1\n                -containersIgnoreFilters 0\n                -editAttrName 0\n                -showAttrValues 0\n                -highlightSecondary 0\n                -showUVAttrsOnly 0\n                -showTextureNodesOnly 0\n                -attrAlphaOrder \"default\" \n                -animLayerFilterOptions \"allAffecting\" \n                -sortOrder \"none\" \n                -longNames 0\n                -niceNames 1\n                -showNamespace 1\n                -showPinIcons 1\n                -mapMotionTrails 1\n                $editorName;\n\n\t\t\t$editorName = ($panelName+\"GraphEd\");\n            animCurveEditor -e \n                -displayKeys 1\n                -displayTangents 0\n                -displayActiveKeys 0\n"
		+ "                -displayActiveKeyTangents 1\n                -displayInfinities 0\n                -autoFit 0\n                -snapTime \"integer\" \n                -snapValue \"none\" \n                -showResults \"off\" \n                -showBufferCurves \"off\" \n                -smoothness \"fine\" \n                -resultSamples 1\n                -resultScreenSamples 0\n                -resultUpdate \"delayed\" \n                -showUpstreamCurves 1\n                -stackedCurves 0\n                -stackedCurvesMin -1\n                -stackedCurvesMax 1\n                -stackedCurvesSpace 0.2\n                -displayNormalized 0\n                -preSelectionHighlight 0\n                -constrainDrag 0\n                -classicMode 1\n                $editorName;\n\t\t}\n\t} else {\n\t\t$label = `panel -q -label $panelName`;\n\t\tscriptedPanel -edit -l (localizedPanelLabel(\"Graph Editor\")) -mbv $menusOkayInPanels  $panelName;\n\n\t\t\t$editorName = ($panelName+\"OutlineEd\");\n            outlinerEditor -e \n                -showShapes 1\n                -showRepresentationNodes 0\n"
		+ "                -showReferenceNodes 0\n                -showAttributes 1\n                -showConnected 1\n                -showAnimCurvesOnly 1\n                -showMuteInfo 0\n                -organizeByLayer 1\n                -showAnimLayerWeight 1\n                -autoExpandLayers 1\n                -autoExpand 1\n                -showDagOnly 0\n                -showAssets 1\n                -showContainedOnly 0\n                -showPublishedAsConnected 0\n                -showContainerContents 0\n                -ignoreDagHierarchy 0\n                -expandConnections 1\n                -showUpstreamCurves 1\n                -showUnitlessCurves 1\n                -showCompounds 0\n                -showLeafs 1\n                -showNumericAttrsOnly 1\n                -highlightActive 0\n                -autoSelectNewObjects 1\n                -doNotSelectNewObjects 0\n                -dropIsParent 1\n                -transmitFilters 1\n                -setFilter \"0\" \n                -showSetMembers 0\n                -allowMultiSelection 1\n"
		+ "                -alwaysToggleSelect 0\n                -directSelect 0\n                -displayMode \"DAG\" \n                -expandObjects 0\n                -setsIgnoreFilters 1\n                -containersIgnoreFilters 0\n                -editAttrName 0\n                -showAttrValues 0\n                -highlightSecondary 0\n                -showUVAttrsOnly 0\n                -showTextureNodesOnly 0\n                -attrAlphaOrder \"default\" \n                -animLayerFilterOptions \"allAffecting\" \n                -sortOrder \"none\" \n                -longNames 0\n                -niceNames 1\n                -showNamespace 1\n                -showPinIcons 1\n                -mapMotionTrails 1\n                $editorName;\n\n\t\t\t$editorName = ($panelName+\"GraphEd\");\n            animCurveEditor -e \n                -displayKeys 1\n                -displayTangents 0\n                -displayActiveKeys 0\n                -displayActiveKeyTangents 1\n                -displayInfinities 0\n                -autoFit 0\n                -snapTime \"integer\" \n"
		+ "                -snapValue \"none\" \n                -showResults \"off\" \n                -showBufferCurves \"off\" \n                -smoothness \"fine\" \n                -resultSamples 1\n                -resultScreenSamples 0\n                -resultUpdate \"delayed\" \n                -showUpstreamCurves 1\n                -stackedCurves 0\n                -stackedCurvesMin -1\n                -stackedCurvesMax 1\n                -stackedCurvesSpace 0.2\n                -displayNormalized 0\n                -preSelectionHighlight 0\n                -constrainDrag 0\n                -classicMode 1\n                $editorName;\n\t\tif (!$useSceneConfig) {\n\t\t\tpanel -e -l $label $panelName;\n\t\t}\n\t}\n\n\n\t$panelName = `sceneUIReplacement -getNextScriptedPanel \"dopeSheetPanel\" (localizedPanelLabel(\"Dope Sheet\")) `;\n\tif (\"\" == $panelName) {\n\t\tif ($useSceneConfig) {\n\t\t\t$panelName = `scriptedPanel -unParent  -type \"dopeSheetPanel\" -l (localizedPanelLabel(\"Dope Sheet\")) -mbv $menusOkayInPanels `;\n\n\t\t\t$editorName = ($panelName+\"OutlineEd\");\n            outlinerEditor -e \n"
		+ "                -showShapes 1\n                -showRepresentationNodes 0\n                -showReferenceNodes 0\n                -showAttributes 1\n                -showConnected 1\n                -showAnimCurvesOnly 1\n                -showMuteInfo 0\n                -organizeByLayer 1\n                -showAnimLayerWeight 1\n                -autoExpandLayers 1\n                -autoExpand 0\n                -showDagOnly 0\n                -showAssets 1\n                -showContainedOnly 0\n                -showPublishedAsConnected 0\n                -showContainerContents 0\n                -ignoreDagHierarchy 0\n                -expandConnections 1\n                -showUpstreamCurves 1\n                -showUnitlessCurves 0\n                -showCompounds 1\n                -showLeafs 1\n                -showNumericAttrsOnly 1\n                -highlightActive 0\n                -autoSelectNewObjects 0\n                -doNotSelectNewObjects 1\n                -dropIsParent 1\n                -transmitFilters 0\n                -setFilter \"0\" \n"
		+ "                -showSetMembers 0\n                -allowMultiSelection 1\n                -alwaysToggleSelect 0\n                -directSelect 0\n                -displayMode \"DAG\" \n                -expandObjects 0\n                -setsIgnoreFilters 1\n                -containersIgnoreFilters 0\n                -editAttrName 0\n                -showAttrValues 0\n                -highlightSecondary 0\n                -showUVAttrsOnly 0\n                -showTextureNodesOnly 0\n                -attrAlphaOrder \"default\" \n                -animLayerFilterOptions \"allAffecting\" \n                -sortOrder \"none\" \n                -longNames 0\n                -niceNames 1\n                -showNamespace 1\n                -showPinIcons 0\n                -mapMotionTrails 1\n                $editorName;\n\n\t\t\t$editorName = ($panelName+\"DopeSheetEd\");\n            dopeSheetEditor -e \n                -displayKeys 1\n                -displayTangents 0\n                -displayActiveKeys 0\n                -displayActiveKeyTangents 0\n                -displayInfinities 0\n"
		+ "                -autoFit 0\n                -snapTime \"integer\" \n                -snapValue \"none\" \n                -outliner \"dopeSheetPanel1OutlineEd\" \n                -showSummary 1\n                -showScene 0\n                -hierarchyBelow 0\n                -showTicks 1\n                -selectionWindow 0 0 0 0 \n                $editorName;\n\t\t}\n\t} else {\n\t\t$label = `panel -q -label $panelName`;\n\t\tscriptedPanel -edit -l (localizedPanelLabel(\"Dope Sheet\")) -mbv $menusOkayInPanels  $panelName;\n\n\t\t\t$editorName = ($panelName+\"OutlineEd\");\n            outlinerEditor -e \n                -showShapes 1\n                -showRepresentationNodes 0\n                -showReferenceNodes 0\n                -showAttributes 1\n                -showConnected 1\n                -showAnimCurvesOnly 1\n                -showMuteInfo 0\n                -organizeByLayer 1\n                -showAnimLayerWeight 1\n                -autoExpandLayers 1\n                -autoExpand 0\n                -showDagOnly 0\n                -showAssets 1\n                -showContainedOnly 0\n"
		+ "                -showPublishedAsConnected 0\n                -showContainerContents 0\n                -ignoreDagHierarchy 0\n                -expandConnections 1\n                -showUpstreamCurves 1\n                -showUnitlessCurves 0\n                -showCompounds 1\n                -showLeafs 1\n                -showNumericAttrsOnly 1\n                -highlightActive 0\n                -autoSelectNewObjects 0\n                -doNotSelectNewObjects 1\n                -dropIsParent 1\n                -transmitFilters 0\n                -setFilter \"0\" \n                -showSetMembers 0\n                -allowMultiSelection 1\n                -alwaysToggleSelect 0\n                -directSelect 0\n                -displayMode \"DAG\" \n                -expandObjects 0\n                -setsIgnoreFilters 1\n                -containersIgnoreFilters 0\n                -editAttrName 0\n                -showAttrValues 0\n                -highlightSecondary 0\n                -showUVAttrsOnly 0\n                -showTextureNodesOnly 0\n                -attrAlphaOrder \"default\" \n"
		+ "                -animLayerFilterOptions \"allAffecting\" \n                -sortOrder \"none\" \n                -longNames 0\n                -niceNames 1\n                -showNamespace 1\n                -showPinIcons 0\n                -mapMotionTrails 1\n                $editorName;\n\n\t\t\t$editorName = ($panelName+\"DopeSheetEd\");\n            dopeSheetEditor -e \n                -displayKeys 1\n                -displayTangents 0\n                -displayActiveKeys 0\n                -displayActiveKeyTangents 0\n                -displayInfinities 0\n                -autoFit 0\n                -snapTime \"integer\" \n                -snapValue \"none\" \n                -outliner \"dopeSheetPanel1OutlineEd\" \n                -showSummary 1\n                -showScene 0\n                -hierarchyBelow 0\n                -showTicks 1\n                -selectionWindow 0 0 0 0 \n                $editorName;\n\t\tif (!$useSceneConfig) {\n\t\t\tpanel -e -l $label $panelName;\n\t\t}\n\t}\n\n\n\t$panelName = `sceneUIReplacement -getNextScriptedPanel \"clipEditorPanel\" (localizedPanelLabel(\"Trax Editor\")) `;\n"
		+ "\tif (\"\" == $panelName) {\n\t\tif ($useSceneConfig) {\n\t\t\t$panelName = `scriptedPanel -unParent  -type \"clipEditorPanel\" -l (localizedPanelLabel(\"Trax Editor\")) -mbv $menusOkayInPanels `;\n\n\t\t\t$editorName = clipEditorNameFromPanel($panelName);\n            clipEditor -e \n                -displayKeys 0\n                -displayTangents 0\n                -displayActiveKeys 0\n                -displayActiveKeyTangents 0\n                -displayInfinities 0\n                -autoFit 0\n                -snapTime \"none\" \n                -snapValue \"none\" \n                -manageSequencer 0 \n                $editorName;\n\t\t}\n\t} else {\n\t\t$label = `panel -q -label $panelName`;\n\t\tscriptedPanel -edit -l (localizedPanelLabel(\"Trax Editor\")) -mbv $menusOkayInPanels  $panelName;\n\n\t\t\t$editorName = clipEditorNameFromPanel($panelName);\n            clipEditor -e \n                -displayKeys 0\n                -displayTangents 0\n                -displayActiveKeys 0\n                -displayActiveKeyTangents 0\n                -displayInfinities 0\n"
		+ "                -autoFit 0\n                -snapTime \"none\" \n                -snapValue \"none\" \n                -manageSequencer 0 \n                $editorName;\n\t\tif (!$useSceneConfig) {\n\t\t\tpanel -e -l $label $panelName;\n\t\t}\n\t}\n\n\n\t$panelName = `sceneUIReplacement -getNextScriptedPanel \"sequenceEditorPanel\" (localizedPanelLabel(\"Camera Sequencer\")) `;\n\tif (\"\" == $panelName) {\n\t\tif ($useSceneConfig) {\n\t\t\t$panelName = `scriptedPanel -unParent  -type \"sequenceEditorPanel\" -l (localizedPanelLabel(\"Camera Sequencer\")) -mbv $menusOkayInPanels `;\n\n\t\t\t$editorName = sequenceEditorNameFromPanel($panelName);\n            clipEditor -e \n                -displayKeys 0\n                -displayTangents 0\n                -displayActiveKeys 0\n                -displayActiveKeyTangents 0\n                -displayInfinities 0\n                -autoFit 0\n                -snapTime \"none\" \n                -snapValue \"none\" \n                -manageSequencer 1 \n                $editorName;\n\t\t}\n\t} else {\n\t\t$label = `panel -q -label $panelName`;\n"
		+ "\t\tscriptedPanel -edit -l (localizedPanelLabel(\"Camera Sequencer\")) -mbv $menusOkayInPanels  $panelName;\n\n\t\t\t$editorName = sequenceEditorNameFromPanel($panelName);\n            clipEditor -e \n                -displayKeys 0\n                -displayTangents 0\n                -displayActiveKeys 0\n                -displayActiveKeyTangents 0\n                -displayInfinities 0\n                -autoFit 0\n                -snapTime \"none\" \n                -snapValue \"none\" \n                -manageSequencer 1 \n                $editorName;\n\t\tif (!$useSceneConfig) {\n\t\t\tpanel -e -l $label $panelName;\n\t\t}\n\t}\n\n\n\t$panelName = `sceneUIReplacement -getNextScriptedPanel \"hyperGraphPanel\" (localizedPanelLabel(\"Hypergraph Hierarchy\")) `;\n\tif (\"\" == $panelName) {\n\t\tif ($useSceneConfig) {\n\t\t\t$panelName = `scriptedPanel -unParent  -type \"hyperGraphPanel\" -l (localizedPanelLabel(\"Hypergraph Hierarchy\")) -mbv $menusOkayInPanels `;\n\n\t\t\t$editorName = ($panelName+\"HyperGraphEd\");\n            hyperGraph -e \n                -graphLayoutStyle \"hierarchicalLayout\" \n"
		+ "                -orientation \"horiz\" \n                -mergeConnections 0\n                -zoom 1\n                -animateTransition 0\n                -showRelationships 1\n                -showShapes 0\n                -showDeformers 0\n                -showExpressions 0\n                -showConstraints 0\n                -showUnderworld 0\n                -showInvisible 0\n                -transitionFrames 1\n                -opaqueContainers 0\n                -freeform 0\n                -imagePosition 0 0 \n                -imageScale 1\n                -imageEnabled 0\n                -graphType \"DAG\" \n                -heatMapDisplay 0\n                -updateSelection 1\n                -updateNodeAdded 1\n                -useDrawOverrideColor 0\n                -limitGraphTraversal -1\n                -range 0 0 \n                -iconSize \"smallIcons\" \n                -showCachedConnections 0\n                $editorName;\n\t\t}\n\t} else {\n\t\t$label = `panel -q -label $panelName`;\n\t\tscriptedPanel -edit -l (localizedPanelLabel(\"Hypergraph Hierarchy\")) -mbv $menusOkayInPanels  $panelName;\n"
		+ "\t\t\t$editorName = ($panelName+\"HyperGraphEd\");\n            hyperGraph -e \n                -graphLayoutStyle \"hierarchicalLayout\" \n                -orientation \"horiz\" \n                -mergeConnections 0\n                -zoom 1\n                -animateTransition 0\n                -showRelationships 1\n                -showShapes 0\n                -showDeformers 0\n                -showExpressions 0\n                -showConstraints 0\n                -showUnderworld 0\n                -showInvisible 0\n                -transitionFrames 1\n                -opaqueContainers 0\n                -freeform 0\n                -imagePosition 0 0 \n                -imageScale 1\n                -imageEnabled 0\n                -graphType \"DAG\" \n                -heatMapDisplay 0\n                -updateSelection 1\n                -updateNodeAdded 1\n                -useDrawOverrideColor 0\n                -limitGraphTraversal -1\n                -range 0 0 \n                -iconSize \"smallIcons\" \n                -showCachedConnections 0\n"
		+ "                $editorName;\n\t\tif (!$useSceneConfig) {\n\t\t\tpanel -e -l $label $panelName;\n\t\t}\n\t}\n\n\n\t$panelName = `sceneUIReplacement -getNextScriptedPanel \"hyperShadePanel\" (localizedPanelLabel(\"Hypershade\")) `;\n\tif (\"\" == $panelName) {\n\t\tif ($useSceneConfig) {\n\t\t\t$panelName = `scriptedPanel -unParent  -type \"hyperShadePanel\" -l (localizedPanelLabel(\"Hypershade\")) -mbv $menusOkayInPanels `;\n\t\t}\n\t} else {\n\t\t$label = `panel -q -label $panelName`;\n\t\tscriptedPanel -edit -l (localizedPanelLabel(\"Hypershade\")) -mbv $menusOkayInPanels  $panelName;\n\t\tif (!$useSceneConfig) {\n\t\t\tpanel -e -l $label $panelName;\n\t\t}\n\t}\n\n\n\t$panelName = `sceneUIReplacement -getNextScriptedPanel \"visorPanel\" (localizedPanelLabel(\"Visor\")) `;\n\tif (\"\" == $panelName) {\n\t\tif ($useSceneConfig) {\n\t\t\t$panelName = `scriptedPanel -unParent  -type \"visorPanel\" -l (localizedPanelLabel(\"Visor\")) -mbv $menusOkayInPanels `;\n\t\t}\n\t} else {\n\t\t$label = `panel -q -label $panelName`;\n\t\tscriptedPanel -edit -l (localizedPanelLabel(\"Visor\")) -mbv $menusOkayInPanels  $panelName;\n"
		+ "\t\tif (!$useSceneConfig) {\n\t\t\tpanel -e -l $label $panelName;\n\t\t}\n\t}\n\n\n\t$panelName = `sceneUIReplacement -getNextScriptedPanel \"nodeEditorPanel\" (localizedPanelLabel(\"Node Editor\")) `;\n\tif (\"\" == $panelName) {\n\t\tif ($useSceneConfig) {\n\t\t\t$panelName = `scriptedPanel -unParent  -type \"nodeEditorPanel\" -l (localizedPanelLabel(\"Node Editor\")) -mbv $menusOkayInPanels `;\n\n\t\t\t$editorName = ($panelName+\"NodeEditorEd\");\n            nodeEditor -e \n                -allAttributes 0\n                -allNodes 0\n                -createNodeCommand \"nodeEdCreateNodeCommand\" \n                -ignoreAssets 1\n                -additiveGraphingMode 0\n                -settingsChangedCallback \"nodeEdSyncControls\" \n                -traversalDepthLimit -1\n                -popupMenuScript \"nodeEdBuildPanelMenus\" \n                -island 0\n                -showShapes 1\n                -showSGShapes 1\n                -showTransforms 1\n                -syncedSelection 1\n                -extendToShapes 1\n                $editorName;\n\t\t\tif (`objExists nodeEditorPanel1Info`) nodeEditor -e -restoreInfo nodeEditorPanel1Info $editorName;\n"
		+ "\t\t}\n\t} else {\n\t\t$label = `panel -q -label $panelName`;\n\t\tscriptedPanel -edit -l (localizedPanelLabel(\"Node Editor\")) -mbv $menusOkayInPanels  $panelName;\n\n\t\t\t$editorName = ($panelName+\"NodeEditorEd\");\n            nodeEditor -e \n                -allAttributes 0\n                -allNodes 0\n                -createNodeCommand \"nodeEdCreateNodeCommand\" \n                -ignoreAssets 1\n                -additiveGraphingMode 0\n                -settingsChangedCallback \"nodeEdSyncControls\" \n                -traversalDepthLimit -1\n                -popupMenuScript \"nodeEdBuildPanelMenus\" \n                -island 0\n                -showShapes 1\n                -showSGShapes 1\n                -showTransforms 1\n                -syncedSelection 1\n                -extendToShapes 1\n                $editorName;\n\t\t\tif (`objExists nodeEditorPanel1Info`) nodeEditor -e -restoreInfo nodeEditorPanel1Info $editorName;\n\t\tif (!$useSceneConfig) {\n\t\t\tpanel -e -l $label $panelName;\n\t\t}\n\t}\n\n\n\t$panelName = `sceneUIReplacement -getNextScriptedPanel \"createNodePanel\" (localizedPanelLabel(\"Create Node\")) `;\n"
		+ "\tif (\"\" == $panelName) {\n\t\tif ($useSceneConfig) {\n\t\t\t$panelName = `scriptedPanel -unParent  -type \"createNodePanel\" -l (localizedPanelLabel(\"Create Node\")) -mbv $menusOkayInPanels `;\n\t\t}\n\t} else {\n\t\t$label = `panel -q -label $panelName`;\n\t\tscriptedPanel -edit -l (localizedPanelLabel(\"Create Node\")) -mbv $menusOkayInPanels  $panelName;\n\t\tif (!$useSceneConfig) {\n\t\t\tpanel -e -l $label $panelName;\n\t\t}\n\t}\n\n\n\t$panelName = `sceneUIReplacement -getNextScriptedPanel \"polyTexturePlacementPanel\" (localizedPanelLabel(\"UV Texture Editor\")) `;\n\tif (\"\" == $panelName) {\n\t\tif ($useSceneConfig) {\n\t\t\t$panelName = `scriptedPanel -unParent  -type \"polyTexturePlacementPanel\" -l (localizedPanelLabel(\"UV Texture Editor\")) -mbv $menusOkayInPanels `;\n\t\t}\n\t} else {\n\t\t$label = `panel -q -label $panelName`;\n\t\tscriptedPanel -edit -l (localizedPanelLabel(\"UV Texture Editor\")) -mbv $menusOkayInPanels  $panelName;\n\t\tif (!$useSceneConfig) {\n\t\t\tpanel -e -l $label $panelName;\n\t\t}\n\t}\n\n\n\t$panelName = `sceneUIReplacement -getNextScriptedPanel \"renderWindowPanel\" (localizedPanelLabel(\"Render View\")) `;\n"
		+ "\tif (\"\" == $panelName) {\n\t\tif ($useSceneConfig) {\n\t\t\t$panelName = `scriptedPanel -unParent  -type \"renderWindowPanel\" -l (localizedPanelLabel(\"Render View\")) -mbv $menusOkayInPanels `;\n\t\t}\n\t} else {\n\t\t$label = `panel -q -label $panelName`;\n\t\tscriptedPanel -edit -l (localizedPanelLabel(\"Render View\")) -mbv $menusOkayInPanels  $panelName;\n\t\tif (!$useSceneConfig) {\n\t\t\tpanel -e -l $label $panelName;\n\t\t}\n\t}\n\n\n\t$panelName = `sceneUIReplacement -getNextPanel \"blendShapePanel\" (localizedPanelLabel(\"Blend Shape\")) `;\n\tif (\"\" == $panelName) {\n\t\tif ($useSceneConfig) {\n\t\t\tblendShapePanel -unParent -l (localizedPanelLabel(\"Blend Shape\")) -mbv $menusOkayInPanels ;\n\t\t}\n\t} else {\n\t\t$label = `panel -q -label $panelName`;\n\t\tblendShapePanel -edit -l (localizedPanelLabel(\"Blend Shape\")) -mbv $menusOkayInPanels  $panelName;\n\t\tif (!$useSceneConfig) {\n\t\t\tpanel -e -l $label $panelName;\n\t\t}\n\t}\n\n\n\t$panelName = `sceneUIReplacement -getNextScriptedPanel \"dynRelEdPanel\" (localizedPanelLabel(\"Dynamic Relationships\")) `;\n\tif (\"\" == $panelName) {\n"
		+ "\t\tif ($useSceneConfig) {\n\t\t\t$panelName = `scriptedPanel -unParent  -type \"dynRelEdPanel\" -l (localizedPanelLabel(\"Dynamic Relationships\")) -mbv $menusOkayInPanels `;\n\t\t}\n\t} else {\n\t\t$label = `panel -q -label $panelName`;\n\t\tscriptedPanel -edit -l (localizedPanelLabel(\"Dynamic Relationships\")) -mbv $menusOkayInPanels  $panelName;\n\t\tif (!$useSceneConfig) {\n\t\t\tpanel -e -l $label $panelName;\n\t\t}\n\t}\n\n\n\t$panelName = `sceneUIReplacement -getNextScriptedPanel \"relationshipPanel\" (localizedPanelLabel(\"Relationship Editor\")) `;\n\tif (\"\" == $panelName) {\n\t\tif ($useSceneConfig) {\n\t\t\t$panelName = `scriptedPanel -unParent  -type \"relationshipPanel\" -l (localizedPanelLabel(\"Relationship Editor\")) -mbv $menusOkayInPanels `;\n\t\t}\n\t} else {\n\t\t$label = `panel -q -label $panelName`;\n\t\tscriptedPanel -edit -l (localizedPanelLabel(\"Relationship Editor\")) -mbv $menusOkayInPanels  $panelName;\n\t\tif (!$useSceneConfig) {\n\t\t\tpanel -e -l $label $panelName;\n\t\t}\n\t}\n\n\n\t$panelName = `sceneUIReplacement -getNextScriptedPanel \"referenceEditorPanel\" (localizedPanelLabel(\"Reference Editor\")) `;\n"
		+ "\tif (\"\" == $panelName) {\n\t\tif ($useSceneConfig) {\n\t\t\t$panelName = `scriptedPanel -unParent  -type \"referenceEditorPanel\" -l (localizedPanelLabel(\"Reference Editor\")) -mbv $menusOkayInPanels `;\n\t\t}\n\t} else {\n\t\t$label = `panel -q -label $panelName`;\n\t\tscriptedPanel -edit -l (localizedPanelLabel(\"Reference Editor\")) -mbv $menusOkayInPanels  $panelName;\n\t\tif (!$useSceneConfig) {\n\t\t\tpanel -e -l $label $panelName;\n\t\t}\n\t}\n\n\n\t$panelName = `sceneUIReplacement -getNextScriptedPanel \"componentEditorPanel\" (localizedPanelLabel(\"Component Editor\")) `;\n\tif (\"\" == $panelName) {\n\t\tif ($useSceneConfig) {\n\t\t\t$panelName = `scriptedPanel -unParent  -type \"componentEditorPanel\" -l (localizedPanelLabel(\"Component Editor\")) -mbv $menusOkayInPanels `;\n\t\t}\n\t} else {\n\t\t$label = `panel -q -label $panelName`;\n\t\tscriptedPanel -edit -l (localizedPanelLabel(\"Component Editor\")) -mbv $menusOkayInPanels  $panelName;\n\t\tif (!$useSceneConfig) {\n\t\t\tpanel -e -l $label $panelName;\n\t\t}\n\t}\n\n\n\t$panelName = `sceneUIReplacement -getNextScriptedPanel \"dynPaintScriptedPanelType\" (localizedPanelLabel(\"Paint Effects\")) `;\n"
		+ "\tif (\"\" == $panelName) {\n\t\tif ($useSceneConfig) {\n\t\t\t$panelName = `scriptedPanel -unParent  -type \"dynPaintScriptedPanelType\" -l (localizedPanelLabel(\"Paint Effects\")) -mbv $menusOkayInPanels `;\n\t\t}\n\t} else {\n\t\t$label = `panel -q -label $panelName`;\n\t\tscriptedPanel -edit -l (localizedPanelLabel(\"Paint Effects\")) -mbv $menusOkayInPanels  $panelName;\n\t\tif (!$useSceneConfig) {\n\t\t\tpanel -e -l $label $panelName;\n\t\t}\n\t}\n\n\n\t$panelName = `sceneUIReplacement -getNextScriptedPanel \"scriptEditorPanel\" (localizedPanelLabel(\"Script Editor\")) `;\n\tif (\"\" == $panelName) {\n\t\tif ($useSceneConfig) {\n\t\t\t$panelName = `scriptedPanel -unParent  -type \"scriptEditorPanel\" -l (localizedPanelLabel(\"Script Editor\")) -mbv $menusOkayInPanels `;\n\t\t}\n\t} else {\n\t\t$label = `panel -q -label $panelName`;\n\t\tscriptedPanel -edit -l (localizedPanelLabel(\"Script Editor\")) -mbv $menusOkayInPanels  $panelName;\n\t\tif (!$useSceneConfig) {\n\t\t\tpanel -e -l $label $panelName;\n\t\t}\n\t}\n\n\n\tif ($useSceneConfig) {\n        string $configName = `getPanel -cwl (localizedPanelLabel(\"Current Layout\"))`;\n"
		+ "        if (\"\" != $configName) {\n\t\t\tpanelConfiguration -edit -label (localizedPanelLabel(\"Current Layout\")) \n\t\t\t\t-defaultImage \"\"\n\t\t\t\t-image \"\"\n\t\t\t\t-sc false\n\t\t\t\t-configString \"global string $gMainPane; paneLayout -e -cn \\\"single\\\" -ps 1 100 100 $gMainPane;\"\n\t\t\t\t-removeAllPanels\n\t\t\t\t-ap false\n\t\t\t\t\t(localizedPanelLabel(\"Top View\")) \n\t\t\t\t\t\"modelPanel\"\n"
		+ "\t\t\t\t\t\"$panelName = `modelPanel -unParent -l (localizedPanelLabel(\\\"Top View\\\")) -mbv $menusOkayInPanels `;\\n$editorName = $panelName;\\nmodelEditor -e \\n    -camera \\\"persp\\\" \\n    -useInteractiveMode 0\\n    -displayLights \\\"default\\\" \\n    -displayAppearance \\\"smoothShaded\\\" \\n    -activeOnly 0\\n    -ignorePanZoom 0\\n    -wireframeOnShaded 1\\n    -headsUpDisplay 1\\n    -selectionHiliteDisplay 1\\n    -useDefaultMaterial 0\\n    -bufferMode \\\"double\\\" \\n    -twoSidedLighting 1\\n    -backfaceCulling 0\\n    -xray 0\\n    -jointXray 0\\n    -activeComponentsXray 0\\n    -displayTextures 1\\n    -smoothWireframe 0\\n    -lineWidth 1\\n    -textureAnisotropic 0\\n    -textureHilight 1\\n    -textureSampling 2\\n    -textureDisplay \\\"modulate\\\" \\n    -textureMaxSize 8192\\n    -fogging 0\\n    -fogSource \\\"fragment\\\" \\n    -fogMode \\\"linear\\\" \\n    -fogStart 0\\n    -fogEnd 100\\n    -fogDensity 0.1\\n    -fogColor 0.5 0.5 0.5 1 \\n    -maxConstantTransparency 1\\n    -rendererName \\\"base_OpenGL_Renderer\\\" \\n    -objectFilterShowInHUD 1\\n    -isFiltered 0\\n    -colorResolution 256 256 \\n    -bumpResolution 512 512 \\n    -textureCompression 0\\n    -transparencyAlgorithm \\\"frontAndBackCull\\\" \\n    -transpInShadows 0\\n    -cullingOverride \\\"none\\\" \\n    -lowQualityLighting 0\\n    -maximumNumHardwareLights 1\\n    -occlusionCulling 0\\n    -shadingModel 0\\n    -useBaseRenderer 0\\n    -useReducedRenderer 0\\n    -smallObjectCulling 0\\n    -smallObjectThreshold -1 \\n    -interactiveDisableShadows 0\\n    -interactiveBackFaceCull 0\\n    -sortTransparent 1\\n    -nurbsCurves 1\\n    -nurbsSurfaces 1\\n    -polymeshes 1\\n    -subdivSurfaces 1\\n    -planes 1\\n    -lights 1\\n    -cameras 1\\n    -controlVertices 1\\n    -hulls 1\\n    -grid 1\\n    -imagePlane 1\\n    -joints 1\\n    -ikHandles 1\\n    -deformers 1\\n    -dynamics 1\\n    -fluids 1\\n    -hairSystems 1\\n    -follicles 1\\n    -nCloths 1\\n    -nParticles 1\\n    -nRigids 1\\n    -dynamicConstraints 1\\n    -locators 1\\n    -manipulators 1\\n    -dimensions 1\\n    -handles 1\\n    -pivots 1\\n    -textures 1\\n    -strokes 1\\n    -motionTrails 1\\n    -shadows 0\\n    $editorName;\\nmodelEditor -e -viewSelected 0 $editorName\"\n"
		+ "\t\t\t\t\t\"modelPanel -edit -l (localizedPanelLabel(\\\"Top View\\\")) -mbv $menusOkayInPanels  $panelName;\\n$editorName = $panelName;\\nmodelEditor -e \\n    -camera \\\"persp\\\" \\n    -useInteractiveMode 0\\n    -displayLights \\\"default\\\" \\n    -displayAppearance \\\"smoothShaded\\\" \\n    -activeOnly 0\\n    -ignorePanZoom 0\\n    -wireframeOnShaded 1\\n    -headsUpDisplay 1\\n    -selectionHiliteDisplay 1\\n    -useDefaultMaterial 0\\n    -bufferMode \\\"double\\\" \\n    -twoSidedLighting 1\\n    -backfaceCulling 0\\n    -xray 0\\n    -jointXray 0\\n    -activeComponentsXray 0\\n    -displayTextures 1\\n    -smoothWireframe 0\\n    -lineWidth 1\\n    -textureAnisotropic 0\\n    -textureHilight 1\\n    -textureSampling 2\\n    -textureDisplay \\\"modulate\\\" \\n    -textureMaxSize 8192\\n    -fogging 0\\n    -fogSource \\\"fragment\\\" \\n    -fogMode \\\"linear\\\" \\n    -fogStart 0\\n    -fogEnd 100\\n    -fogDensity 0.1\\n    -fogColor 0.5 0.5 0.5 1 \\n    -maxConstantTransparency 1\\n    -rendererName \\\"base_OpenGL_Renderer\\\" \\n    -objectFilterShowInHUD 1\\n    -isFiltered 0\\n    -colorResolution 256 256 \\n    -bumpResolution 512 512 \\n    -textureCompression 0\\n    -transparencyAlgorithm \\\"frontAndBackCull\\\" \\n    -transpInShadows 0\\n    -cullingOverride \\\"none\\\" \\n    -lowQualityLighting 0\\n    -maximumNumHardwareLights 1\\n    -occlusionCulling 0\\n    -shadingModel 0\\n    -useBaseRenderer 0\\n    -useReducedRenderer 0\\n    -smallObjectCulling 0\\n    -smallObjectThreshold -1 \\n    -interactiveDisableShadows 0\\n    -interactiveBackFaceCull 0\\n    -sortTransparent 1\\n    -nurbsCurves 1\\n    -nurbsSurfaces 1\\n    -polymeshes 1\\n    -subdivSurfaces 1\\n    -planes 1\\n    -lights 1\\n    -cameras 1\\n    -controlVertices 1\\n    -hulls 1\\n    -grid 1\\n    -imagePlane 1\\n    -joints 1\\n    -ikHandles 1\\n    -deformers 1\\n    -dynamics 1\\n    -fluids 1\\n    -hairSystems 1\\n    -follicles 1\\n    -nCloths 1\\n    -nParticles 1\\n    -nRigids 1\\n    -dynamicConstraints 1\\n    -locators 1\\n    -manipulators 1\\n    -dimensions 1\\n    -handles 1\\n    -pivots 1\\n    -textures 1\\n    -strokes 1\\n    -motionTrails 1\\n    -shadows 0\\n    $editorName;\\nmodelEditor -e -viewSelected 0 $editorName\"\n"
		+ "\t\t\t\t$configName;\n\n            setNamedPanelLayout (localizedPanelLabel(\"Current Layout\"));\n        }\n\n        panelHistory -e -clear mainPanelHistory;\n        setFocus `paneLayout -q -p1 $gMainPane`;\n        sceneUIReplacement -deleteRemaining;\n        sceneUIReplacement -clear;\n\t}\n\n\ngrid -spacing 5 -size 12 -divisions 5 -displayAxes yes -displayGridLines yes -displayDivisionLines yes -displayPerspectiveLabels no -displayOrthographicLabels no -displayAxesBold yes -perspectiveLabelPosition axis -orthographicLabelPosition edge;\nviewManip -drawCompass 0 -compassAngle 0 -frontParameters \"\" -homeParameters \"\" -selectionLockParameters \"\";\n}\n");
	setAttr ".st" 3;
createNode script -n "sceneConfigurationScriptNode";
	setAttr ".b" -type "string" "playbackOptions -min 1 -max 100 -ast 1 -aet 100 ";
	setAttr ".st" 6;
createNode lambert -n "lambert2";
createNode shadingEngine -n "lambert2SG";
	setAttr ".ihi" 0;
	setAttr ".ro" yes;
createNode materialInfo -n "materialInfo1";
createNode checker -n "checker1";
	addAttr -ci true -sn "resolution" -ln "resolution" -dv 32 -at "long";
	setAttr ".resolution" 256;
createNode place2dTexture -n "place2dTexture1";
	setAttr ".re" -type "float2" 16 16 ;
createNode meshToMap -n "meshToMap1";
createNode softMod -n "softMod1";
	setAttr ".gm[0]" -type "matrix" 1 0 0 0 0 1 0 0 0 0 1 0 1.1251634824394239 0 0 1
		;
	setAttr -s 2 ".fc[0:1]"  1 0 2 0 1 2;
	setAttr ".fr" 0.43028061461059269;
	setAttr ".fcr" -type "double3" 1.6251635419999999 3.7252902979999999e-09 0.5 ;
	setAttr ".fas" no;
createNode tweak -n "tweak1";
createNode objectSet -n "softMod1Set";
	setAttr ".ihi" 0;
	setAttr ".vo" yes;
createNode groupId -n "softMod1GroupId";
	setAttr ".ihi" 0;
createNode groupParts -n "softMod1GroupParts";
	setAttr ".ihi" 0;
	setAttr ".ic" -type "componentList" 1 "vtx[0:438]";
createNode objectSet -n "tweakSet1";
	setAttr ".ihi" 0;
	setAttr ".vo" yes;
createNode groupId -n "groupId2";
	setAttr ".ihi" 0;
createNode groupParts -n "groupParts2";
	setAttr ".ihi" 0;
	setAttr ".ic" -type "componentList" 1 "vtx[*]";
createNode animCurveTA -n "softMod1Handle_rotateX";
	setAttr ".tan" 10;
	setAttr ".wgt" no;
	setAttr -s 4 ".ktv[0:3]"  1 0 60 0 80 0 100 0;
createNode animCurveTA -n "softMod1Handle_rotateY";
	setAttr ".tan" 10;
	setAttr ".wgt" no;
	setAttr -s 4 ".ktv[0:3]"  1 0 60 0 80 74.674913678978839 100 0;
createNode animCurveTA -n "softMod1Handle_rotateZ";
	setAttr ".tan" 10;
	setAttr ".wgt" no;
	setAttr -s 4 ".ktv[0:3]"  1 0 60 0 80 0 100 0;
createNode animCurveTL -n "softMod1Handle_translateX";
	setAttr ".tan" 10;
	setAttr ".wgt" no;
	setAttr -s 5 ".ktv[0:4]"  1 0 15 0.15694431518613233 30 0.16241102295788148 45 -0.16864252991833806
		 60 0;
createNode animCurveTL -n "softMod1Handle_translateY";
	setAttr ".tan" 10;
	setAttr ".wgt" no;
	setAttr -s 5 ".ktv[0:4]"  1 0 15 2.2204460492503131e-16 30 -1.4388491130978519e-16
		 45 7.8159693615246117e-17 60 0;
createNode animCurveTL -n "softMod1Handle_translateZ";
	setAttr ".tan" 10;
	setAttr ".wgt" no;
	setAttr -s 5 ".ktv[0:4]"  1 0 15 -0.20167325773101411 30 0.16272364222826108 45 0.14661819277533861
		 60 0;
createNode objectSet -n "SLIDERSViewSelectedSet";
select -ne :time1;
	setAttr ".o" 1;
	setAttr ".unw" 1;
select -ne :renderPartition;
	setAttr -s 3 ".st";
select -ne :initialShadingGroup;
	setAttr ".ro" yes;
select -ne :initialParticleSE;
	setAttr ".ro" yes;
select -ne :defaultShaderList1;
	setAttr -s 3 ".s";
select -ne :defaultTextureList1;
select -ne :postProcessList1;
	setAttr -s 2 ".p";
select -ne :defaultRenderUtilityList1;
select -ne :defaultRenderingList1;
select -ne :renderGlobalsList1;
select -ne :hardwareRenderGlobals;
	setAttr ".ctrs" 256;
	setAttr ".btrs" 512;
select -ne :defaultHardwareRenderGlobals;
	setAttr ".fn" -type "string" "im";
	setAttr ".res" -type "string" "ntsc_4d 646 485 1.333";
connectAttr "meshToMap1.om" "pSphereShape1.i";
connectAttr "softMod1.og[0]" "polySurfaceShape1.i";
connectAttr "tweak1.vl[0].vt[0]" "polySurfaceShape1.twl";
connectAttr "softMod1GroupId.id" "polySurfaceShape1.iog.og[0].gid";
connectAttr "softMod1Set.mwc" "polySurfaceShape1.iog.og[0].gco";
connectAttr "groupId2.id" "polySurfaceShape1.iog.og[1].gid";
connectAttr "tweakSet1.mwc" "polySurfaceShape1.iog.og[1].gco";
connectAttr "mapToMesh1.om" "polySurfaceShape1Orig.i";
connectAttr "softMod1Handle_translateX.o" "softMod1Handle.tx";
connectAttr "softMod1Handle_translateY.o" "softMod1Handle.ty";
connectAttr "softMod1Handle_translateZ.o" "softMod1Handle.tz";
connectAttr "softMod1Handle_rotateX.o" "softMod1Handle.rx";
connectAttr "softMod1Handle_rotateY.o" "softMod1Handle.ry";
connectAttr "softMod1Handle_rotateZ.o" "softMod1Handle.rz";
relationship "link" ":lightLinker1" ":initialShadingGroup.message" ":defaultLightSet.message";
relationship "link" ":lightLinker1" ":initialParticleSE.message" ":defaultLightSet.message";
relationship "link" ":lightLinker1" "lambert2SG.message" ":defaultLightSet.message";
relationship "shadowLink" ":lightLinker1" ":initialShadingGroup.message" ":defaultLightSet.message";
relationship "shadowLink" ":lightLinker1" ":initialParticleSE.message" ":defaultLightSet.message";
relationship "shadowLink" ":lightLinker1" "lambert2SG.message" ":defaultLightSet.message";
connectAttr "layerManager.dli[0]" "defaultLayer.id";
connectAttr "renderLayerManager.rlmi[0]" "defaultRenderLayer.rlid";
connectAttr "polySphere1.out" "mapToMesh1.im";
connectAttr "hyperView1.msg" "nodeEditorPanel1Info.b[0]";
connectAttr "hyperLayout1.msg" "hyperView1.hl";
connectAttr "polySurface1.msg" "hyperLayout1.hyp[0].dn";
connectAttr "polySphere1.msg" "hyperLayout1.hyp[1].dn";
connectAttr "pSphereShape1.msg" "hyperLayout1.hyp[2].dn";
connectAttr "mapToMesh1.msg" "hyperLayout1.hyp[3].dn";
connectAttr "polySurfaceShape1.msg" "hyperLayout1.hyp[4].dn";
connectAttr "hyperLayout1.msg" "hyperLayout1.hyp[5].dn";
connectAttr "meshToMap1.msg" "hyperLayout1.hyp[6].dn";
connectAttr "softMod1.msg" "hyperLayout1.hyp[7].dn";
connectAttr "polySurfaceShape1Orig.msg" "hyperLayout1.hyp[8].dn";
connectAttr "tweak1.msg" "hyperLayout1.hyp[9].dn";
connectAttr "softMod1Set.msg" "hyperLayout1.hyp[10].dn";
connectAttr "softMod1GroupId.msg" "hyperLayout1.hyp[11].dn";
connectAttr "softMod1GroupParts.msg" "hyperLayout1.hyp[12].dn";
connectAttr "tweakSet1.msg" "hyperLayout1.hyp[13].dn";
connectAttr "groupId2.msg" "hyperLayout1.hyp[14].dn";
connectAttr "groupParts2.msg" "hyperLayout1.hyp[15].dn";
connectAttr "softMod1Handle.msg" "hyperLayout1.hyp[16].dn";
connectAttr "softMod1HandleShape.msg" "hyperLayout1.hyp[17].dn";
connectAttr "softMod1Handle_rotateX.msg" "hyperLayout1.hyp[18].dn";
connectAttr "softMod1Handle_rotateY.msg" "hyperLayout1.hyp[19].dn";
connectAttr "softMod1Handle_rotateZ.msg" "hyperLayout1.hyp[20].dn";
connectAttr "softMod1Handle_translateX.msg" "hyperLayout1.hyp[21].dn";
connectAttr "softMod1Handle_translateY.msg" "hyperLayout1.hyp[22].dn";
connectAttr "softMod1Handle_translateZ.msg" "hyperLayout1.hyp[23].dn";
connectAttr "SLIDERSViewSelectedSet.msg" "hyperLayout1.hyp[24].dn";
connectAttr "checker1.oc" "lambert2.c";
connectAttr "lambert2.oc" "lambert2SG.ss";
connectAttr "pSphereShape1.iog" "lambert2SG.dsm" -na;
connectAttr "lambert2SG.msg" "materialInfo1.sg";
connectAttr "lambert2.msg" "materialInfo1.m";
connectAttr "checker1.msg" "materialInfo1.t" -na;
connectAttr "place2dTexture1.o" "checker1.uv";
connectAttr "place2dTexture1.ofs" "checker1.fs";
connectAttr "polySurfaceShape1.o" "meshToMap1.im2";
connectAttr "polySphere1.out" "meshToMap1.im";
connectAttr "softMod1GroupParts.og" "softMod1.ip[0].ig";
connectAttr "softMod1GroupId.id" "softMod1.ip[0].gi";
connectAttr "softMod1Handle.wm" "softMod1.ma";
connectAttr "softMod1HandleShape.x" "softMod1.x";
connectAttr "groupParts2.og" "tweak1.ip[0].ig";
connectAttr "groupId2.id" "tweak1.ip[0].gi";
connectAttr "softMod1GroupId.msg" "softMod1Set.gn" -na;
connectAttr "polySurfaceShape1.iog.og[0]" "softMod1Set.dsm" -na;
connectAttr "softMod1.msg" "softMod1Set.ub[0]";
connectAttr "tweak1.og[0]" "softMod1GroupParts.ig";
connectAttr "softMod1GroupId.id" "softMod1GroupParts.gi";
connectAttr "groupId2.msg" "tweakSet1.gn" -na;
connectAttr "polySurfaceShape1.iog.og[1]" "tweakSet1.dsm" -na;
connectAttr "tweak1.msg" "tweakSet1.ub[0]";
connectAttr "polySurfaceShape1Orig.w" "groupParts2.ig";
connectAttr "groupId2.id" "groupParts2.gi";
connectAttr "lambert2SG.pa" ":renderPartition.st" -na;
connectAttr "lambert2.msg" ":defaultShaderList1.s" -na;
connectAttr "checker1.msg" ":defaultTextureList1.tx" -na;
connectAttr "place2dTexture1.msg" ":defaultRenderUtilityList1.u" -na;
connectAttr "defaultRenderLayer.msg" ":defaultRenderingList1.r" -na;
// End of mapToMesh_meshToMap.ma
